data/old/oscilloscope/C1Trace00183.txt

"Record Length",1252,"Points",-2.50151e-007,0.000220973
"Sample Interval",4e-010,s,-2.49751e-007,0
"Trigger Point",625,"Samples",-2.49351e-007,0.000883892
"Trigger Time",0.377018,s,-2.48951e-007,0.000220973
,,,-2.48551e-007,-0.000662919
"Horizontal Offset",-2.50151e-007,s,-2.48151e-007,0.000883892
,,,-2.47751e-007,0.000220973
,,,-2.47351e-007,0.000220973
,,,-2.46951e-007,0.00110486
,,,-2.46551e-007,0.000441946
,,,-2.46151e-007,0.000662919
,,,-2.45751e-007,0.00154681
,,,-2.45351e-007,-0.000220973
,,,-2.44951e-007,0.000220973
,,,-2.44551e-007,0.000441946
,,,-2.44151e-007,0.000220973
,,,-2.43751e-007,-0.000220973
,,,-2.43351e-007,0.000220973
,,,-2.42951e-007,0.000441946
,,,-2.42551e-007,0.000662919
,,,-2.42151e-007,0.000662919
,,,-2.41751e-007,0.000662919
,,,-2.41351e-007,0.000883892
,,,-2.40951e-007,0.000662919
,,,-2.40551e-007,0
,,,-2.40151e-007,0.000441946
,,,-2.39751e-007,0.000662919
,,,-2.39351e-007,0.000441946
,,,-2.38951e-007,0
,,,-2.38551e-007,0.000441946
,,,-2.38151e-007,0.000220973
,,,-2.37751e-007,0.000441946
,,,-2.37351e-007,0.000883892
,,,-2.36951e-007,0.000441946
,,,-2.36551e-007,0.000441946
,,,-2.36151e-007,0.000662919
,,,-2.35751e-007,0.000441946
,,,-2.35351e-007,0
,,,-2.34951e-007,0.000220973
,,,-2.34551e-007,-0.000662919
,,,-2.34151e-007,-0.000220973
,,,-2.33751e-007,0.000441946
,,,-2.33351e-007,0.000220973
,,,-2.32951e-007,0.000220973
,,,-2.32551e-007,-0.000220973
,,,-2.32151e-007,0.000662919
,,,-2.31751e-007,0.000220973
,,,-2.31351e-007,0.000662919
,,,-2.30951e-007,0.000441946
,,,-2.30551e-007,0.000441946
,,,-2.30151e-007,-0.000662919
,,,-2.29751e-007,-0.000220973
,,,-2.29351e-007,0.000662919
,,,-2.28951e-007,0.000662919
,,,-2.28551e-007,0
,,,-2.28151e-007,-0.000441946
,,,-2.27751e-007,0.00110486
,,,-2.27351e-007,0.000441946
,,,-2.26951e-007,-0.000662919
,,,-2.26551e-007,0.000220973
,,,-2.26151e-007,0
,,,-2.25751e-007,0
,,,-2.25351e-007,0.000441946
,,,-2.24951e-007,0.000220973
,,,-2.24551e-007,0.000220973
,,,-2.24151e-007,0.000883892
,,,-2.23751e-007,0.000441946
,,,-2.23351e-007,0.000441946
,,,-2.22951e-007,0.000662919
,,,-2.22551e-007,0.000220973
,,,-2.22151e-007,0
,,,-2.21751e-007,0.000220973
,,,-2.21351e-007,0.000441946
,,,-2.20951e-007,-0.000220973
,,,-2.20551e-007,0.000662919
,,,-2.20151e-007,0
,,,-2.19751e-007,0.000441946
,,,-2.19351e-007,-0.000220973
,,,-2.18951e-007,0.000220973
,,,-2.18551e-007,0
,,,-2.18151e-007,-0.000220973
,,,-2.17751e-007,0
,,,-2.17351e-007,-0.000220973
,,,-2.16951e-007,0.00110486
,,,-2.16551e-007,0.000441946
,,,-2.16151e-007,0.00110486
,,,-2.15751e-007,0
,,,-2.15351e-007,0.000220973
,,,-2.14951e-007,0.000883892
,,,-2.14551e-007,0.000662919
,,,-2.14151e-007,0.000883892
,,,-2.13751e-007,0.000662919
,,,-2.13351e-007,0.000220973
,,,-2.12951e-007,0.000220973
,,,-2.12551e-007,0.000662919
,,,-2.12151e-007,-0.000220973
,,,-2.11751e-007,0.000662919
,,,-2.11351e-007,0.000441946
,,,-2.10951e-007,-0.000220973
,,,-2.10551e-007,0.000441946
,,,-2.10151e-007,0.000662919
,,,-2.09751e-007,0.000441946
,,,-2.09351e-007,0.000441946
,,,-2.08951e-007,0.000441946
,,,-2.08551e-007,0.000220973
,,,-2.08151e-007,0
,,,-2.07751e-007,0
,,,-2.07351e-007,0.000883892
,,,-2.06951e-007,0.000441946
,,,-2.06551e-007,0.000662919
,,,-2.06151e-007,0.000441946
,,,-2.05751e-007,-0.000220973
,,,-2.05351e-007,0.000220973
,,,-2.04951e-007,0.000220973
,,,-2.04551e-007,-0.000220973
,,,-2.04151e-007,0.000220973
,,,-2.03751e-007,0.000441946
,,,-2.03351e-007,0.000220973
,,,-2.02951e-007,0
,,,-2.02551e-007,0.000662919
,,,-2.02151e-007,0
,,,-2.01751e-007,0.000441946
,,,-2.01351e-007,0.000662919
,,,-2.00951e-007,0.000883892
,,,-2.00551e-007,0
,,,-2.00151e-007,0.000220973
,,,-1.99751e-007,0.000220973
,,,-1.99351e-007,0
,,,-1.98951e-007,0
,,,-1.98551e-007,0.000220973
,,,-1.98151e-007,0
,,,-1.97751e-007,0
,,,-1.97351e-007,0.000441946
,,,-1.96951e-007,0.000441946
,,,-1.96551e-007,0.000220973
,,,-1.96151e-007,0.000220973
,,,-1.95751e-007,0.000220973
,,,-1.95351e-007,0.000220973
,,,-1.94951e-007,0.000220973
,,,-1.94551e-007,0.000441946
,,,-1.94151e-007,0.000220973
,,,-1.93751e-007,0.000883892
,,,-1.93351e-007,0
,,,-1.92951e-007,-0.000220973
,,,-1.92551e-007,0
,,,-1.92151e-007,0.000220973
,,,-1.91751e-007,0.000441946
,,,-1.91351e-007,0.000220973
,,,-1.90951e-007,0.000220973
,,,-1.90551e-007,0.000883892
,,,-1.90151e-007,0.000220973
,,,-1.89751e-007,0.000441946
,,,-1.89351e-007,0
,,,-1.88951e-007,0.000441946
,,,-1.88551e-007,0.000662919
,,,-1.88151e-007,0.000220973
,,,-1.87751e-007,0.000662919
,,,-1.87351e-007,0.000662919
,,,-1.86951e-007,0.000220973
,,,-1.86551e-007,0.000220973
,,,-1.86151e-007,0.000441946
,,,-1.85751e-007,0.00132584
,,,-1.85351e-007,0.000441946
,,,-1.84951e-007,-0.000441946
,,,-1.84551e-007,0
,,,-1.84151e-007,0
,,,-1.83751e-007,0
,,,-1.83351e-007,0.00110486
,,,-1.82951e-007,0.000883892
,,,-1.82551e-007,0.000220973
,,,-1.82151e-007,0.000662919
,,,-1.81751e-007,0.000441946
,,,-1.81351e-007,0.000220973
,,,-1.80951e-007,0.000441946
,,,-1.80551e-007,-0.000220973
,,,-1.80151e-007,0.000883892
,,,-1.79751e-007,0
,,,-1.79351e-007,-0.000220973
,,,-1.78951e-007,0.000220973
,,,-1.78551e-007,0.000441946
,,,-1.78151e-007,0
,,,-1.77751e-007,0.000883892
,,,-1.77351e-007,0.000883892
,,,-1.76951e-007,0.000662919
,,,-1.76551e-007,0.000441946
,,,-1.76151e-007,0.00110486
,,,-1.75751e-007,0.000883892
,,,-1.75351e-007,0.000662919
,,,-1.74951e-007,0.000883892
,,,-1.74551e-007,0.000441946
,,,-1.74151e-007,0
,,,-1.73751e-007,0.00132584
,,,-1.73351e-007,0.000441946
,,,-1.72951e-007,0.000220973
,,,-1.72551e-007,0
,,,-1.72151e-007,0.000220973
,,,-1.71751e-007,-0.000441946
,,,-1.71351e-007,0
,,,-1.70951e-007,0
,,,-1.70551e-007,0.000220973
,,,-1.70151e-007,0.000662919
,,,-1.69751e-007,0.00110486
,,,-1.69351e-007,0
,,,-1.68951e-007,0.000441946
,,,-1.68551e-007,-0.000220973
,,,-1.68151e-007,0.000441946
,,,-1.67751e-007,0.000883892
,,,-1.67351e-007,0.000441946
,,,-1.66951e-007,0.000220973
,,,-1.66551e-007,0.000883892
,,,-1.66151e-007,0.000662919
,,,-1.65751e-007,0.000662919
,,,-1.65351e-007,0.000662919
,,,-1.64951e-007,-0.000220973
,,,-1.64551e-007,0
,,,-1.64151e-007,0.000220973
,,,-1.63751e-007,0.000220973
,,,-1.63351e-007,0.000220973
,,,-1.62951e-007,0
,,,-1.62551e-007,0.000441946
,,,-1.62151e-007,0.000220973
,,,-1.61751e-007,0.000220973
,,,-1.61351e-007,0.000441946
,,,-1.60951e-007,0.000220973
,,,-1.60551e-007,0.000220973
,,,-1.60151e-007,0.000441946
,,,-1.59751e-007,0
,,,-1.59351e-007,0.000662919
,,,-1.58951e-007,0.000220973
,,,-1.58551e-007,0.000441946
,,,-1.58151e-007,0.000220973
,,,-1.57751e-007,0.000662919
,,,-1.57351e-007,0
,,,-1.56951e-007,0.000662919
,,,-1.56551e-007,0.000441946
,,,-1.56151e-007,0.000441946
,,,-1.55751e-007,0
,,,-1.55351e-007,0
,,,-1.54951e-007,-0.000441946
,,,-1.54551e-007,0.000441946
,,,-1.54151e-007,0.000441946
,,,-1.53751e-007,0.000441946
,,,-1.53351e-007,0.000220973
,,,-1.52951e-007,0.000220973
,,,-1.52551e-007,0
,,,-1.52151e-007,0.00110486
,,,-1.51751e-007,0.00110486
,,,-1.51351e-007,-0.000441946
,,,-1.50951e-007,0.000441946
,,,-1.50551e-007,0.000662919
,,,-1.50151e-007,0.000441946
,,,-1.49751e-007,0.000220973
,,,-1.49351e-007,-0.000441946
,,,-1.48951e-007,0.000220973
,,,-1.48551e-007,0.000883892
,,,-1.48151e-007,0.000883892
,,,-1.47751e-007,0.000441946
,,,-1.47351e-007,0
,,,-1.46951e-007,-0.000441946
,,,-1.46551e-007,0.000441946
,,,-1.46151e-007,0.000220973
,,,-1.45751e-007,0.000441946
,,,-1.45351e-007,0.000662919
,,,-1.44951e-007,-0.000441946
,,,-1.44551e-007,0.000220973
,,,-1.44151e-007,0
,,,-1.43751e-007,0.000441946
,,,-1.43351e-007,-0.000220973
,,,-1.42951e-007,0.000220973
,,,-1.42551e-007,0.000220973
,,,-1.42151e-007,-0.000220973
,,,-1.41751e-007,0.000220973
,,,-1.41351e-007,0.000441946
,,,-1.40951e-007,0.000220973
,,,-1.40551e-007,0.000220973
,,,-1.40151e-007,0.000883892
,,,-1.39751e-007,0.000883892
,,,-1.39351e-007,0.000662919
,,,-1.38951e-007,0
,,,-1.38551e-007,0.000662919
,,,-1.38151e-007,0.000662919
,,,-1.37751e-007,0.000883892
,,,-1.37351e-007,0
,,,-1.36951e-007,0.000662919
,,,-1.36551e-007,-0.000441946
,,,-1.36151e-007,0.00132584
,,,-1.35751e-007,0
,,,-1.35351e-007,0
,,,-1.34951e-007,0.000441946
,,,-1.34551e-007,0.000220973
,,,-1.34151e-007,0.000220973
,,,-1.33751e-007,-0.000441946
,,,-1.33351e-007,0
,,,-1.32951e-007,0.000220973
,,,-1.32551e-007,0
,,,-1.32151e-007,0
,,,-1.31751e-007,0.000441946
,,,-1.31351e-007,0.000441946
,,,-1.30951e-007,0
,,,-1.30551e-007,0.000441946
,,,-1.30151e-007,-0.000220973
,,,-1.29751e-007,0
,,,-1.29351e-007,0.000662919
,,,-1.28951e-007,0.000220973
,,,-1.28551e-007,0.000220973
,,,-1.28151e-007,0.000441946
,,,-1.27751e-007,0.000220973
,,,-1.27351e-007,0.000441946
,,,-1.26951e-007,0
,,,-1.26551e-007,0.000441946
,,,-1.26151e-007,0.000662919
,,,-1.25751e-007,0.00132584
,,,-1.25351e-007,0.000220973
,,,-1.24951e-007,0.000662919
,,,-1.24551e-007,0.000441946
,,,-1.24151e-007,0.000441946
,,,-1.23751e-007,0.000220973
,,,-1.23351e-007,0
,,,-1.22951e-007,-0.000220973
,,,-1.22551e-007,0.000662919
,,,-1.22151e-007,0.000220973
,,,-1.21751e-007,0.000220973
,,,-1.21351e-007,0
,,,-1.20951e-007,0
,,,-1.20551e-007,-0.000441946
,,,-1.20151e-007,0.00110486
,,,-1.19751e-007,0.00110486
,,,-1.19351e-007,0.000220973
,,,-1.18951e-007,0.000220973
,,,-1.18551e-007,0.000662919
,,,-1.18151e-007,0
,,,-1.17751e-007,0.000662919
,,,-1.17351e-007,0.000662919
,,,-1.16951e-007,0.000220973
,,,-1.16551e-007,0.000220973
,,,-1.16151e-007,0.000220973
,,,-1.15751e-007,0.000441946
,,,-1.15351e-007,0.000662919
,,,-1.14951e-007,0.000662919
,,,-1.14551e-007,0.00110486
,,,-1.14151e-007,0
,,,-1.13751e-007,0.00110486
,,,-1.13351e-007,0.000220973
,,,-1.12951e-007,0
,,,-1.12551e-007,0.00110486
,,,-1.12151e-007,0.00110486
,,,-1.11751e-007,0.000662919
,,,-1.11351e-007,0.000662919
,,,-1.10951e-007,0.000220973
,,,-1.10551e-007,0.000441946
,,,-1.10151e-007,0.000883892
,,,-1.09751e-007,0.000441946
,,,-1.09351e-007,0.000883892
,,,-1.08951e-007,0.000441946
,,,-1.08551e-007,0.000662919
,,,-1.08151e-007,0
,,,-1.07751e-007,0
,,,-1.07351e-007,-0.000220973
,,,-1.06951e-007,0.000220973
,,,-1.06551e-007,0
,,,-1.06151e-007,0.00110486
,,,-1.05751e-007,0.000441946
,,,-1.05351e-007,0.000441946
,,,-1.04951e-007,0.000883892
,,,-1.04551e-007,-0.000220973
,,,-1.04151e-007,0.000441946
,,,-1.03751e-007,-0.000220973
,,,-1.03351e-007,0.000441946
,,,-1.02951e-007,0.00110486
,,,-1.02551e-007,0.000441946
,,,-1.02151e-007,0.000220973
,,,-1.01751e-007,0.000662919
,,,-1.01351e-007,0.000662919
,,,-1.00951e-007,0.000883892
,,,-1.00551e-007,0.000441946
,,,-1.00151e-007,0
,,,-9.97508e-008,0.000441946
,,,-9.93508e-008,0.000441946
,,,-9.89508e-008,-0.000220973
,,,-9.85508e-008,-0.000220973
,,,-9.81508e-008,0.000441946
,,,-9.77508e-008,0.000662919
,,,-9.73508e-008,0.000662919
,,,-9.69508e-008,0.000883892
,,,-9.65508e-008,0.000441946
,,,-9.61508e-008,0.000883892
,,,-9.57508e-008,0.000662919
,,,-9.53508e-008,-0.000220973
,,,-9.49508e-008,0.000441946
,,,-9.45508e-008,0.000883892
,,,-9.41508e-008,0.000662919
,,,-9.37508e-008,0.000883892
,,,-9.33508e-008,0
,,,-9.29508e-008,0.000441946
,,,-9.25508e-008,0.000441946
,,,-9.21508e-008,0.000662919
,,,-9.17508e-008,0
,,,-9.13508e-008,0.000220973
,,,-9.09508e-008,0
,,,-9.05508e-008,0.000220973
,,,-9.01508e-008,0
,,,-8.97508e-008,0
,,,-8.93508e-008,0
,,,-8.89508e-008,0.000441946
,,,-8.85508e-008,0.000220973
,,,-8.81508e-008,0.000441946
,,,-8.77508e-008,-0.000220973
,,,-8.73508e-008,0.000883892
,,,-8.69508e-008,-0.000441946
,,,-8.65508e-008,0.000220973
,,,-8.61508e-008,0.000662919
,,,-8.57508e-008,0.000441946
,,,-8.53508e-008,0
,,,-8.49508e-008,0.000883892
,,,-8.45508e-008,0.000220973
,,,-8.41508e-008,0.000441946
,,,-8.37508e-008,0
,,,-8.33508e-008,0
,,,-8.29508e-008,-0.000220973
,,,-8.25508e-008,0
,,,-8.21508e-008,0.000441946
,,,-8.17508e-008,0.000662919
,,,-8.13508e-008,0.000441946
,,,-8.09508e-008,0.000220973
,,,-8.05508e-008,0.000220973
,,,-8.01508e-008,0.00110486
,,,-7.97508e-008,0.000220973
,,,-7.93508e-008,0.000220973
,,,-7.89508e-008,0.000220973
,,,-7.85508e-008,0.000662919
,,,-7.81508e-008,0.000220973
,,,-7.77508e-008,0.000662919
,,,-7.73508e-008,-0.000441946
,,,-7.69508e-008,0.000441946
,,,-7.65508e-008,0.00110486
,,,-7.61508e-008,0.000220973
,,,-7.57508e-008,-0.000220973
,,,-7.53508e-008,-0.000220973
,,,-7.49508e-008,-0.000220973
,,,-7.45508e-008,0.000662919
,,,-7.41508e-008,0.000441946
,,,-7.37508e-008,0.000441946
,,,-7.33508e-008,0
,,,-7.29508e-008,0.000441946
,,,-7.25508e-008,0.000220973
,,,-7.21508e-008,0.00154681
,,,-7.17508e-008,0.000662919
,,,-7.13508e-008,0.000220973
,,,-7.09508e-008,0.000441946
,,,-7.05508e-008,0.000220973
,,,-7.01508e-008,-0.000220973
,,,-6.97508e-008,0.000220973
,,,-6.93508e-008,0.000220973
,,,-6.89508e-008,0
,,,-6.85508e-008,0.000220973
,,,-6.81508e-008,0.000220973
,,,-6.77508e-008,0.000220973
,,,-6.73508e-008,0
,,,-6.69508e-008,0.000883892
,,,-6.65508e-008,0.000883892
,,,-6.61508e-008,0.000220973
,,,-6.57508e-008,0.000662919
,,,-6.53508e-008,0
,,,-6.49508e-008,0
,,,-6.45508e-008,0
,,,-6.41508e-008,0.00110486
,,,-6.37508e-008,0.000662919
,,,-6.33508e-008,0.000220973
,,,-6.29508e-008,-0.000220973
,,,-6.25508e-008,0.000441946
,,,-6.21508e-008,0.000220973
,,,-6.17508e-008,0.000220973
,,,-6.13508e-008,-0.000220973
,,,-6.09508e-008,0
,,,-6.05508e-008,-0.000220973
,,,-6.01508e-008,0
,,,-5.97508e-008,0
,,,-5.93508e-008,0
,,,-5.89508e-008,-0.000220973
,,,-5.85508e-008,0.000220973
,,,-5.81508e-008,0.000883892
,,,-5.77508e-008,0.000883892
,,,-5.73508e-008,0.000441946
,,,-5.69508e-008,0.000441946
,,,-5.65508e-008,-0.000220973
,,,-5.61508e-008,0.000883892
,,,-5.57508e-008,-0.000441946
,,,-5.53508e-008,0
,,,-5.49508e-008,0.000662919
,,,-5.45508e-008,0.000883892
,,,-5.41508e-008,0.000662919
,,,-5.37508e-008,0.000883892
,,,-5.33508e-008,0.000220973
,,,-5.29508e-008,0
,,,-5.25508e-008,-0.000220973
,,,-5.21508e-008,0.000220973
,,,-5.17508e-008,0
,,,-5.13508e-008,0.000220973
,,,-5.09508e-008,0.000220973
,,,-5.05508e-008,0.000441946
,,,-5.01508e-008,0.000662919
,,,-4.97508e-008,0.000220973
,,,-4.93508e-008,0.000441946
,,,-4.89508e-008,0
,,,-4.85508e-008,-0.000220973
,,,-4.81508e-008,0.000220973
,,,-4.77508e-008,0.000220973
,,,-4.73508e-008,0
,,,-4.69508e-008,0.000220973
,,,-4.65508e-008,0
,,,-4.61508e-008,-0.000441946
,,,-4.57508e-008,0.000662919
,,,-4.53508e-008,0.000220973
,,,-4.49508e-008,-0.000441946
,,,-4.45508e-008,-0.000441946
,,,-4.41508e-008,0
,,,-4.37508e-008,-0.000220973
,,,-4.33508e-008,0
,,,-4.29508e-008,0
,,,-4.25508e-008,0.000220973
,,,-4.21508e-008,0.000441946
,,,-4.17508e-008,0.000662919
,,,-4.13508e-008,0.000441946
,,,-4.09508e-008,0.000441946
,,,-4.05508e-008,0.000662919
,,,-4.01508e-008,0.000883892
,,,-3.97508e-008,-0.000220973
,,,-3.93508e-008,0.000662919
,,,-3.89508e-008,0
,,,-3.85508e-008,0.000662919
,,,-3.81508e-008,-0.000220973
,,,-3.77508e-008,0.000662919
,,,-3.73508e-008,0
,,,-3.69508e-008,0.000441946
,,,-3.65508e-008,0.000220973
,,,-3.61508e-008,0
,,,-3.57508e-008,0.000220973
,,,-3.53508e-008,0.000220973
,,,-3.49508e-008,0
,,,-3.45508e-008,0.000662919
,,,-3.41508e-008,0
,,,-3.37508e-008,0.000441946
,,,-3.33508e-008,0.000220973
,,,-3.29508e-008,-0.000220973
,,,-3.25508e-008,0
,,,-3.21508e-008,0.000220973
,,,-3.17508e-008,0.000220973
,,,-3.13508e-008,0
,,,-3.09508e-008,0.000441946
,,,-3.05508e-008,0.000883892
,,,-3.01508e-008,0.000662919
,,,-2.97508e-008,0.000662919
,,,-2.93508e-008,0
,,,-2.89508e-008,0.000220973
,,,-2.85508e-008,0.000662919
,,,-2.81508e-008,0.000220973
,,,-2.77508e-008,-0.000441946
,,,-2.73508e-008,0.000662919
,,,-2.69508e-008,-0.000220973
,,,-2.65508e-008,0.000441946
,,,-2.61508e-008,0.000662919
,,,-2.57508e-008,0.000441946
,,,-2.53508e-008,0.000441946
,,,-2.49508e-008,0.000441946
,,,-2.45508e-008,-0.000441946
,,,-2.41508e-008,0.000662919
,,,-2.37508e-008,0.000220973
,,,-2.33508e-008,0.000220973
,,,-2.29508e-008,0
,,,-2.25508e-008,0.00110486
,,,-2.21508e-008,0.000220973
,,,-2.17508e-008,0.000883892
,,,-2.13508e-008,-0.000220973
,,,-2.09508e-008,-0.000662919
,,,-2.05508e-008,0.000220973
,,,-2.01508e-008,0.000662919
,,,-1.97508e-008,0
,,,-1.93508e-008,0.000220973
,,,-1.89508e-008,0.000441946
,,,-1.85508e-008,0.000441946
,,,-1.81508e-008,0.000441946
,,,-1.77508e-008,0.00110486
,,,-1.73508e-008,0.000662919
,,,-1.69508e-008,0.000662919
,,,-1.65508e-008,0.000662919
,,,-1.61508e-008,0.000220973
,,,-1.57508e-008,0.000441946
,,,-1.53508e-008,0.000662919
,,,-1.49508e-008,0.000220973
,,,-1.45508e-008,0.000441946
,,,-1.41508e-008,0.00154681
,,,-1.37508e-008,0.000662919
,,,-1.33508e-008,0.000883892
,,,-1.29508e-008,0
,,,-1.25508e-008,0.000220973
,,,-1.21508e-008,0.000220973
,,,-1.17508e-008,0.000441946
,,,-1.13508e-008,0.000662919
,,,-1.09508e-008,0
,,,-1.05508e-008,0.000441946
,,,-1.01508e-008,0
,,,-9.75081e-009,0.000220973
,,,-9.35081e-009,0.000220973
,,,-8.95081e-009,0.00110486
,,,-8.55081e-009,0
,,,-8.15081e-009,0.000883892
,,,-7.75081e-009,-0.000441946
,,,-7.35081e-009,0.000220973
,,,-6.95081e-009,0.00110486
,,,-6.55081e-009,0.000441946
,,,-6.15081e-009,0.000662919
,,,-5.75081e-009,0.00110486
,,,-5.35081e-009,0.000220973
,,,-4.95081e-009,0.000220973
,,,-4.55081e-009,0.000662919
,,,-4.15081e-009,0
,,,-3.75081e-009,0
,,,-3.35081e-009,0.000441946
,,,-2.95081e-009,0.000220973
,,,-2.55081e-009,0.000220973
,,,-2.15081e-009,0.000441946
,,,-1.75081e-009,0.000220973
,,,-1.35081e-009,0
,,,-9.50807e-010,0
,,,-5.50807e-010,-0.000220973
,,,-1.50807e-010,0
,,,2.49193e-010,0.000220973
,,,6.49193e-010,-0.000220973
,,,1.04919e-009,0.000883892
,,,1.44919e-009,0.000441946
,,,1.84919e-009,0.000220973
,,,2.24919e-009,0.000662919
,,,2.64919e-009,0.000662919
,,,3.04919e-009,0.000441946
,,,3.44919e-009,0.000220973
,,,3.84919e-009,0
,,,4.24919e-009,0.000883892
,,,4.64919e-009,0.000441946
,,,5.04919e-009,0
,,,5.44919e-009,0
,,,5.84919e-009,0.000220973
,,,6.24919e-009,0.000662919
,,,6.64919e-009,0.000220973
,,,7.04919e-009,0.000441946
,,,7.44919e-009,0.000441946
,,,7.84919e-009,0.000883892
,,,8.24919e-009,0.000220973
,,,8.64919e-009,0
,,,9.04919e-009,0.000662919
,,,9.44919e-009,0.000220973
,,,9.84919e-009,0.000883892
,,,1.02492e-008,0.000662919
,,,1.06492e-008,0
,,,1.10492e-008,0.000441946
,,,1.14492e-008,0.000220973
,,,1.18492e-008,0
,,,1.22492e-008,0.000662919
,,,1.26492e-008,-0.000441946
,,,1.30492e-008,-0.000441946
,,,1.34492e-008,-0.000220973
,,,1.38492e-008,0.000662919
,,,1.42492e-008,0.000662919
,,,1.46492e-008,0.00132584
,,,1.50492e-008,0.000441946
,,,1.54492e-008,0.000441946
,,,1.58492e-008,0
,,,1.62492e-008,0.000220973
,,,1.66492e-008,0.000220973
,,,1.70492e-008,0.000220973
,,,1.74492e-008,0.000441946
,,,1.78492e-008,0.000441946
,,,1.82492e-008,-0.000220973
,,,1.86492e-008,-0.000220973
,,,1.90492e-008,0
,,,1.94492e-008,0.000662919
,,,1.98492e-008,0
,,,2.02492e-008,0.000441946
,,,2.06492e-008,0.000220973
,,,2.10492e-008,-0.000441946
,,,2.14492e-008,0.000220973
,,,2.18492e-008,0.000441946
,,,2.22492e-008,0.000220973
,,,2.26492e-008,0.000662919
,,,2.30492e-008,0.000662919
,,,2.34492e-008,0.000220973
,,,2.38492e-008,0.000220973
,,,2.42492e-008,0
,,,2.46492e-008,0.000220973
,,,2.50492e-008,0
,,,2.54492e-008,0.000220973
,,,2.58492e-008,0
,,,2.62492e-008,0.000220973
,,,2.66492e-008,0
,,,2.70492e-008,0.000441946
,,,2.74492e-008,0.000220973
,,,2.78492e-008,-0.000220973
,,,2.82492e-008,0.000220973
,,,2.86492e-008,0.000220973
,,,2.90492e-008,0.000662919
,,,2.94492e-008,0.000441946
,,,2.98492e-008,0
,,,3.02492e-008,0.000441946
,,,3.06492e-008,0.000220973
,,,3.10492e-008,0.000441946
,,,3.14492e-008,-0.000220973
,,,3.18492e-008,0.000441946
,,,3.22492e-008,0.000220973
,,,3.26492e-008,0.000662919
,,,3.30492e-008,0.000883892
,,,3.34492e-008,0.000883892
,,,3.38492e-008,0.000220973
,,,3.42492e-008,0.000441946
,,,3.46492e-008,0.000220973
,,,3.50492e-008,0.000662919
,,,3.54492e-008,0
,,,3.58492e-008,-0.000441946
,,,3.62492e-008,-0.000220973
,,,3.66492e-008,0.000883892
,,,3.70492e-008,-0.000220973
,,,3.74492e-008,-0.000441946
,,,3.78492e-008,0.000220973
,,,3.82492e-008,0.000662919
,,,3.86492e-008,-0.000220973
,,,3.90492e-008,0.000883892
,,,3.94492e-008,0
,,,3.98492e-008,0.000662919
,,,4.02492e-008,0.000220973
,,,4.06492e-008,0.000220973
,,,4.10492e-008,0.000441946
,,,4.14492e-008,0
