data/old/oscilloscope/C1Trace00196.txt

"Record Length",1252,"Points",-2.50024e-007,-0.000220973
"Sample Interval",4e-010,s,-2.49624e-007,-0.000662919
"Trigger Point",625,"Samples",-2.49224e-007,-0.000220973
"Trigger Time",0.0603156,s,-2.48824e-007,0
,,,-2.48424e-007,0.000220973
"Horizontal Offset",-2.50024e-007,s,-2.48024e-007,0.000220973
,,,-2.47624e-007,-0.000220973
,,,-2.47224e-007,0
,,,-2.46824e-007,0.000441946
,,,-2.46424e-007,0
,,,-2.46024e-007,0
,,,-2.45624e-007,0
,,,-2.45224e-007,0.00132584
,,,-2.44824e-007,-0.000220973
,,,-2.44424e-007,0
,,,-2.44024e-007,-0.000220973
,,,-2.43624e-007,0.000662919
,,,-2.43224e-007,0.000883892
,,,-2.42824e-007,0.000441946
,,,-2.42424e-007,0.000220973
,,,-2.42024e-007,0.000220973
,,,-2.41624e-007,0
,,,-2.41224e-007,0
,,,-2.40824e-007,0
,,,-2.40424e-007,-0.000220973
,,,-2.40024e-007,0
,,,-2.39624e-007,0
,,,-2.39224e-007,0.000662919
,,,-2.38824e-007,0
,,,-2.38424e-007,0
,,,-2.38024e-007,0.000441946
,,,-2.37624e-007,0.000441946
,,,-2.37224e-007,0.000441946
,,,-2.36824e-007,0
,,,-2.36424e-007,0.000441946
,,,-2.36024e-007,0.000441946
,,,-2.35624e-007,-0.000220973
,,,-2.35224e-007,0.000220973
,,,-2.34824e-007,0.000220973
,,,-2.34424e-007,-0.000662919
,,,-2.34024e-007,-0.000220973
,,,-2.33624e-007,-0.000220973
,,,-2.33224e-007,0.000441946
,,,-2.32824e-007,-0.000220973
,,,-2.32424e-007,-0.000441946
,,,-2.32024e-007,0.000441946
,,,-2.31624e-007,0
,,,-2.31224e-007,-0.000441946
,,,-2.30824e-007,-0.000220973
,,,-2.30424e-007,0
,,,-2.30024e-007,0
,,,-2.29624e-007,0.000662919
,,,-2.29224e-007,-0.000220973
,,,-2.28824e-007,-0.000220973
,,,-2.28424e-007,0.000220973
,,,-2.28024e-007,0
,,,-2.27624e-007,0.000441946
,,,-2.27224e-007,0.000441946
,,,-2.26824e-007,0.000220973
,,,-2.26424e-007,0.000441946
,,,-2.26024e-007,-0.000220973
,,,-2.25624e-007,-0.000220973
,,,-2.25224e-007,-0.000441946
,,,-2.24824e-007,0.000441946
,,,-2.24424e-007,0
,,,-2.24024e-007,0
,,,-2.23624e-007,0
,,,-2.23224e-007,-0.000220973
,,,-2.22824e-007,-0.000441946
,,,-2.22424e-007,0.000883892
,,,-2.22024e-007,0.000441946
,,,-2.21624e-007,0.000220973
,,,-2.21224e-007,-0.000220973
,,,-2.20824e-007,0
,,,-2.20424e-007,0
,,,-2.20024e-007,0.000662919
,,,-2.19624e-007,0.000441946
,,,-2.19224e-007,-0.000220973
,,,-2.18824e-007,0
,,,-2.18424e-007,0.000662919
,,,-2.18024e-007,0
,,,-2.17624e-007,0.000441946
,,,-2.17224e-007,-0.000441946
,,,-2.16824e-007,0.000441946
,,,-2.16424e-007,0.000441946
,,,-2.16024e-007,0.000220973
,,,-2.15624e-007,0
,,,-2.15224e-007,0.000441946
,,,-2.14824e-007,0.000441946
,,,-2.14424e-007,0
,,,-2.14024e-007,0.000441946
,,,-2.13624e-007,0.000441946
,,,-2.13224e-007,0.000441946
,,,-2.12824e-007,0.000441946
,,,-2.12424e-007,-0.000220973
,,,-2.12024e-007,0.000220973
,,,-2.11624e-007,0
,,,-2.11224e-007,-0.000220973
,,,-2.10824e-007,0.000220973
,,,-2.10424e-007,-0.000220973
,,,-2.10024e-007,-0.000220973
,,,-2.09624e-007,0
,,,-2.09224e-007,0.000220973
,,,-2.08824e-007,-0.000220973
,,,-2.08424e-007,0
,,,-2.08024e-007,0.000220973
,,,-2.07624e-007,0.000220973
,,,-2.07224e-007,0.000220973
,,,-2.06824e-007,0.000220973
,,,-2.06424e-007,-0.000220973
,,,-2.06024e-007,0.000662919
,,,-2.05624e-007,0.000662919
,,,-2.05224e-007,0.000441946
,,,-2.04824e-007,0
,,,-2.04424e-007,0.000220973
,,,-2.04024e-007,0.000220973
,,,-2.03624e-007,-0.000220973
,,,-2.03224e-007,0.000441946
,,,-2.02824e-007,0.000662919
,,,-2.02424e-007,0.000441946
,,,-2.02024e-007,0.000441946
,,,-2.01624e-007,-0.000220973
,,,-2.01224e-007,0.000220973
,,,-2.00824e-007,-0.000662919
,,,-2.00424e-007,-0.000441946
,,,-2.00024e-007,0.000441946
,,,-1.99624e-007,-0.000220973
,,,-1.99224e-007,0.000441946
,,,-1.98824e-007,0.000220973
,,,-1.98424e-007,0
,,,-1.98024e-007,0
,,,-1.97624e-007,0.000441946
,,,-1.97224e-007,0.000220973
,,,-1.96824e-007,-0.000220973
,,,-1.96424e-007,0.000220973
,,,-1.96024e-007,0.000441946
,,,-1.95624e-007,0.000441946
,,,-1.95224e-007,0.000441946
,,,-1.94824e-007,0.000220973
,,,-1.94424e-007,0
,,,-1.94024e-007,0.000441946
,,,-1.93624e-007,0.000662919
,,,-1.93224e-007,0.000220973
,,,-1.92824e-007,-0.000220973
,,,-1.92424e-007,0
,,,-1.92024e-007,-0.000220973
,,,-1.91624e-007,0
,,,-1.91224e-007,0.000441946
,,,-1.90824e-007,0
,,,-1.90424e-007,-0.000441946
,,,-1.90024e-007,0
,,,-1.89624e-007,0.000441946
,,,-1.89224e-007,0.000220973
,,,-1.88824e-007,0.000220973
,,,-1.88424e-007,0.000662919
,,,-1.88024e-007,0.000662919
,,,-1.87624e-007,0.000662919
,,,-1.87224e-007,0.000220973
,,,-1.86824e-007,0.000220973
,,,-1.86424e-007,-0.000220973
,,,-1.86024e-007,0.000441946
,,,-1.85624e-007,-0.000441946
,,,-1.85224e-007,0.000220973
,,,-1.84824e-007,0
,,,-1.84424e-007,0.000441946
,,,-1.84024e-007,0.000220973
,,,-1.83624e-007,-0.000441946
,,,-1.83224e-007,0
,,,-1.82824e-007,0.000662919
,,,-1.82424e-007,0.000220973
,,,-1.82024e-007,0.000441946
,,,-1.81624e-007,0.000441946
,,,-1.81224e-007,0.000441946
,,,-1.80824e-007,0
,,,-1.80424e-007,-0.000441946
,,,-1.80024e-007,0.000220973
,,,-1.79624e-007,0.000220973
,,,-1.79224e-007,0.000220973
,,,-1.78824e-007,0.000441946
,,,-1.78424e-007,0.000441946
,,,-1.78024e-007,-0.000441946
,,,-1.77624e-007,0
,,,-1.77224e-007,0
,,,-1.76824e-007,0
,,,-1.76424e-007,0
,,,-1.76024e-007,0
,,,-1.75624e-007,-0.000662919
,,,-1.75224e-007,0
,,,-1.74824e-007,0.000220973
,,,-1.74424e-007,0.000441946
,,,-1.74024e-007,0.000220973
,,,-1.73624e-007,0.000220973
,,,-1.73224e-007,0.00110486
,,,-1.72824e-007,0.000441946
,,,-1.72424e-007,-0.000662919
,,,-1.72024e-007,0.000662919
,,,-1.71624e-007,-0.000220973
,,,-1.71224e-007,0.000662919
,,,-1.70824e-007,0.000441946
,,,-1.70424e-007,-0.000220973
,,,-1.70024e-007,0
,,,-1.69624e-007,-0.000662919
,,,-1.69224e-007,-0.000220973
,,,-1.68824e-007,0.000220973
,,,-1.68424e-007,0.000662919
,,,-1.68024e-007,0.000220973
,,,-1.67624e-007,0.000441946
,,,-1.67224e-007,-0.000220973
,,,-1.66824e-007,0.000441946
,,,-1.66424e-007,-0.000220973
,,,-1.66024e-007,-0.000441946
,,,-1.65624e-007,0.000220973
,,,-1.65224e-007,-0.000220973
,,,-1.64824e-007,0
,,,-1.64424e-007,0
,,,-1.64024e-007,0.000220973
,,,-1.63624e-007,0.000662919
,,,-1.63224e-007,0.000441946
,,,-1.62824e-007,-0.000662919
,,,-1.62424e-007,0.000441946
,,,-1.62024e-007,0.000441946
,,,-1.61624e-007,0.000441946
,,,-1.61224e-007,0.000883892
,,,-1.60824e-007,0.000883892
,,,-1.60424e-007,0
,,,-1.60024e-007,0
,,,-1.59624e-007,0.000220973
,,,-1.59224e-007,0.000220973
,,,-1.58824e-007,-0.000883892
,,,-1.58424e-007,0.000441946
,,,-1.58024e-007,0.000220973
,,,-1.57624e-007,0.00110486
,,,-1.57224e-007,0
,,,-1.56824e-007,0
,,,-1.56424e-007,0.000662919
,,,-1.56024e-007,0.000441946
,,,-1.55624e-007,-0.000662919
,,,-1.55224e-007,0
,,,-1.54824e-007,0.000220973
,,,-1.54424e-007,0.000220973
,,,-1.54024e-007,0
,,,-1.53624e-007,-0.000441946
,,,-1.53224e-007,0
,,,-1.52824e-007,0.000662919
,,,-1.52424e-007,-0.000441946
,,,-1.52024e-007,0
,,,-1.51624e-007,0.000441946
,,,-1.51224e-007,0.000220973
,,,-1.50824e-007,-0.000220973
,,,-1.50424e-007,0.000441946
,,,-1.50024e-007,0.000220973
,,,-1.49624e-007,0.000441946
,,,-1.49224e-007,0
,,,-1.48824e-007,-0.000662919
,,,-1.48424e-007,0
,,,-1.48024e-007,-0.000220973
,,,-1.47624e-007,0.000883892
,,,-1.47224e-007,0.000441946
,,,-1.46824e-007,0.000883892
,,,-1.46424e-007,-0.000220973
,,,-1.46024e-007,0
,,,-1.45624e-007,0.000883892
,,,-1.45224e-007,0
,,,-1.44824e-007,-0.000441946
,,,-1.44424e-007,0.000441946
,,,-1.44024e-007,0
,,,-1.43624e-007,0
,,,-1.43224e-007,0.000220973
,,,-1.42824e-007,0.000220973
,,,-1.42424e-007,0.000220973
,,,-1.42024e-007,0.000441946
,,,-1.41624e-007,0
,,,-1.41224e-007,-0.000662919
,,,-1.40824e-007,0.000441946
,,,-1.40424e-007,0
,,,-1.40024e-007,0
,,,-1.39624e-007,0
,,,-1.39224e-007,0.000220973
,,,-1.38824e-007,0.000220973
,,,-1.38424e-007,0.000441946
,,,-1.38024e-007,0.000220973
,,,-1.37624e-007,0.000220973
,,,-1.37224e-007,0.000220973
,,,-1.36824e-007,0.000220973
,,,-1.36424e-007,0
,,,-1.36024e-007,0.000220973
,,,-1.35624e-007,0.000220973
,,,-1.35224e-007,0.000441946
,,,-1.34824e-007,0.000662919
,,,-1.34424e-007,0.000441946
,,,-1.34024e-007,0.000441946
,,,-1.33624e-007,0.000662919
,,,-1.33224e-007,-0.000220973
,,,-1.32824e-007,0.000441946
,,,-1.32424e-007,0
,,,-1.32024e-007,0
,,,-1.31624e-007,-0.000220973
,,,-1.31224e-007,0.000441946
,,,-1.30824e-007,0.000220973
,,,-1.30424e-007,0.000441946
,,,-1.30024e-007,0.000883892
,,,-1.29624e-007,0.000662919
,,,-1.29224e-007,0.000441946
,,,-1.28824e-007,0.000220973
,,,-1.28424e-007,-0.000220973
,,,-1.28024e-007,0
,,,-1.27624e-007,0
,,,-1.27224e-007,0.000441946
,,,-1.26824e-007,-0.000220973
,,,-1.26424e-007,0.000441946
,,,-1.26024e-007,0
,,,-1.25624e-007,0.000220973
,,,-1.25224e-007,0.000662919
,,,-1.24824e-007,0.000220973
,,,-1.24424e-007,0.000220973
,,,-1.24024e-007,-0.000220973
,,,-1.23624e-007,0.000441946
,,,-1.23224e-007,0.000883892
,,,-1.22824e-007,0.000883892
,,,-1.22424e-007,0.000220973
,,,-1.22024e-007,0
,,,-1.21624e-007,-0.000662919
,,,-1.21224e-007,0
,,,-1.20824e-007,-0.000441946
,,,-1.20424e-007,-0.000220973
,,,-1.20024e-007,0
,,,-1.19624e-007,0.000441946
,,,-1.19224e-007,0
,,,-1.18824e-007,-0.000441946
,,,-1.18424e-007,-0.000220973
,,,-1.18024e-007,0.000220973
,,,-1.17624e-007,0.000883892
,,,-1.17224e-007,0.000662919
,,,-1.16824e-007,0.000441946
,,,-1.16424e-007,0.000441946
,,,-1.16024e-007,0.000883892
,,,-1.15624e-007,0.00132584
,,,-1.15224e-007,0.000220973
,,,-1.14824e-007,0.000220973
,,,-1.14424e-007,0.000220973
,,,-1.14024e-007,0
,,,-1.13624e-007,0.000220973
,,,-1.13224e-007,0.000441946
,,,-1.12824e-007,0
,,,-1.12424e-007,0
,,,-1.12024e-007,0
,,,-1.11624e-007,-0.000441946
,,,-1.11224e-007,0.000220973
,,,-1.10824e-007,0.000883892
,,,-1.10424e-007,0
,,,-1.10024e-007,-0.000662919
,,,-1.09624e-007,0.000220973
,,,-1.09224e-007,-0.000220973
,,,-1.08824e-007,0
,,,-1.08424e-007,0.000441946
,,,-1.08024e-007,0.000220973
,,,-1.07624e-007,0.000441946
,,,-1.07224e-007,0
,,,-1.06824e-007,0
,,,-1.06424e-007,0.000220973
,,,-1.06024e-007,0.000883892
,,,-1.05624e-007,0
,,,-1.05224e-007,0.000220973
,,,-1.04824e-007,0.000883892
,,,-1.04424e-007,0
,,,-1.04024e-007,0.000220973
,,,-1.03624e-007,0.000220973
,,,-1.03224e-007,0.00110486
,,,-1.02824e-007,0.000441946
,,,-1.02424e-007,0.000883892
,,,-1.02024e-007,0.000662919
,,,-1.01624e-007,0.000441946
,,,-1.01224e-007,-0.000441946
,,,-1.00824e-007,0.000441946
,,,-1.00424e-007,0.000441946
,,,-1.00024e-007,0.000220973
,,,-9.96241e-008,0
,,,-9.92241e-008,0
,,,-9.88241e-008,0
,,,-9.84241e-008,0
,,,-9.80241e-008,0
,,,-9.76241e-008,0.000662919
,,,-9.72241e-008,0
,,,-9.68241e-008,0.000220973
,,,-9.64241e-008,-0.000220973
,,,-9.60241e-008,0
,,,-9.56241e-008,0
,,,-9.52241e-008,0.000662919
,,,-9.48241e-008,0.000220973
,,,-9.44241e-008,0.000441946
,,,-9.40241e-008,0.000441946
,,,-9.36241e-008,0.000441946
,,,-9.32241e-008,0.000220973
,,,-9.28241e-008,0.000220973
,,,-9.24241e-008,0.000220973
,,,-9.20241e-008,0
,,,-9.16241e-008,0.000220973
,,,-9.12241e-008,0.000441946
,,,-9.08241e-008,0.000441946
,,,-9.04241e-008,0
,,,-9.00241e-008,0
,,,-8.96241e-008,-0.000883892
,,,-8.92241e-008,0.000220973
,,,-8.88241e-008,-0.000220973
,,,-8.84241e-008,-0.000662919
,,,-8.80241e-008,0.000220973
,,,-8.76241e-008,0.000662919
,,,-8.72241e-008,0.000220973
,,,-8.68241e-008,0.000441946
,,,-8.64241e-008,0.000220973
,,,-8.60241e-008,0.000220973
,,,-8.56241e-008,0.000662919
,,,-8.52241e-008,-0.000220973
,,,-8.48241e-008,0
,,,-8.44241e-008,0.00110486
,,,-8.40241e-008,0
,,,-8.36241e-008,0.000662919
,,,-8.32241e-008,0.000883892
,,,-8.28241e-008,0.000220973
,,,-8.24241e-008,0.000220973
,,,-8.20241e-008,0.000220973
,,,-8.16241e-008,0.000220973
,,,-8.12241e-008,0
,,,-8.08241e-008,0.000220973
,,,-8.04241e-008,0
,,,-8.00241e-008,0
,,,-7.96241e-008,0.000662919
,,,-7.92241e-008,0.000662919
,,,-7.88241e-008,0.000220973
,,,-7.84241e-008,0.000883892
,,,-7.80241e-008,-0.000441946
,,,-7.76241e-008,0
,,,-7.72241e-008,0.000662919
,,,-7.68241e-008,-0.000220973
,,,-7.64241e-008,0.000662919
,,,-7.60241e-008,0.000662919
,,,-7.56241e-008,0.000662919
,,,-7.52241e-008,0.000220973
,,,-7.48241e-008,0.000220973
,,,-7.44241e-008,0.000441946
,,,-7.40241e-008,0
,,,-7.36241e-008,-0.000662919
,,,-7.32241e-008,0
,,,-7.28241e-008,0
,,,-7.24241e-008,-0.000441946
,,,-7.20241e-008,0
,,,-7.16241e-008,-0.000220973
,,,-7.12241e-008,0.000220973
,,,-7.08241e-008,0
,,,-7.04241e-008,-0.000441946
,,,-7.00241e-008,0
,,,-6.96241e-008,0.000220973
,,,-6.92241e-008,0
,,,-6.88241e-008,0.000441946
,,,-6.84241e-008,0.000441946
,,,-6.80241e-008,0
,,,-6.76241e-008,0.000662919
,,,-6.72241e-008,0.000441946
,,,-6.68241e-008,-0.000441946
,,,-6.64241e-008,0.000883892
,,,-6.60241e-008,0.000220973
,,,-6.56241e-008,-0.000662919
,,,-6.52241e-008,0
,,,-6.48241e-008,0.000220973
,,,-6.44241e-008,0.000220973
,,,-6.40241e-008,0.000441946
,,,-6.36241e-008,0
,,,-6.32241e-008,0.000662919
,,,-6.28241e-008,-0.000220973
,,,-6.24241e-008,0.000220973
,,,-6.20241e-008,-0.000441946
,,,-6.16241e-008,0.00132584
,,,-6.12241e-008,-0.000441946
,,,-6.08241e-008,0
,,,-6.04241e-008,0.000883892
,,,-6.00241e-008,0.000220973
,,,-5.96241e-008,0.000220973
,,,-5.92241e-008,0.000883892
,,,-5.88241e-008,0
,,,-5.84241e-008,0.000662919
,,,-5.80241e-008,0.000883892
,,,-5.76241e-008,-0.000220973
,,,-5.72241e-008,0.000220973
,,,-5.68241e-008,0.000220973
,,,-5.64241e-008,0
,,,-5.60241e-008,-0.000441946
,,,-5.56241e-008,0
,,,-5.52241e-008,-0.000441946
,,,-5.48241e-008,0.000441946
,,,-5.44241e-008,0.000662919
,,,-5.40241e-008,0.000220973
,,,-5.36241e-008,0.000662919
,,,-5.32241e-008,0.000220973
,,,-5.28241e-008,0.000441946
,,,-5.24241e-008,0.000662919
,,,-5.20241e-008,0.000662919
,,,-5.16241e-008,0.000662919
,,,-5.12241e-008,0.000662919
,,,-5.08241e-008,-0.000220973
,,,-5.04241e-008,0
,,,-5.00241e-008,-0.000220973
,,,-4.96241e-008,0
,,,-4.92241e-008,-0.000220973
,,,-4.88241e-008,-0.000441946
,,,-4.84241e-008,0.000662919
,,,-4.80241e-008,0.000441946
,,,-4.76241e-008,0
,,,-4.72241e-008,0.000662919
,,,-4.68241e-008,0.000441946
,,,-4.64241e-008,0.000220973
,,,-4.60241e-008,0.000441946
,,,-4.56241e-008,0.000441946
,,,-4.52241e-008,-0.000220973
,,,-4.48241e-008,-0.000662919
,,,-4.44241e-008,0
,,,-4.40241e-008,0.000220973
,,,-4.36241e-008,0.000220973
,,,-4.32241e-008,0
,,,-4.28241e-008,0.000220973
,,,-4.24241e-008,-0.000662919
,,,-4.20241e-008,-0.000662919
,,,-4.16241e-008,0
,,,-4.12241e-008,0.000220973
,,,-4.08241e-008,0.000441946
,,,-4.04241e-008,-0.000220973
,,,-4.00241e-008,0
,,,-3.96241e-008,0
,,,-3.92241e-008,0
,,,-3.88241e-008,0.000441946
,,,-3.84241e-008,0.000220973
,,,-3.80241e-008,0.000220973
,,,-3.76241e-008,0.000220973
,,,-3.72241e-008,0.000220973
,,,-3.68241e-008,0.000441946
,,,-3.64241e-008,0.000883892
,,,-3.60241e-008,0.000662919
,,,-3.56241e-008,0.000220973
,,,-3.52241e-008,0.000662919
,,,-3.48241e-008,0
,,,-3.44241e-008,0.000220973
,,,-3.40241e-008,0.000662919
,,,-3.36241e-008,-0.000441946
,,,-3.32241e-008,-0.000220973
,,,-3.28241e-008,0.000441946
,,,-3.24241e-008,0.000883892
,,,-3.20241e-008,0.000441946
,,,-3.16241e-008,0
,,,-3.12241e-008,0.000220973
,,,-3.08241e-008,0
,,,-3.04241e-008,0
,,,-3.00241e-008,0
,,,-2.96241e-008,0.000662919
,,,-2.92241e-008,0.000220973
,,,-2.88241e-008,0
,,,-2.84241e-008,0.000220973
,,,-2.80241e-008,0.000662919
,,,-2.76241e-008,0.000220973
,,,-2.72241e-008,0.000220973
,,,-2.68241e-008,0.000883892
,,,-2.64241e-008,0
,,,-2.60241e-008,-0.000220973
,,,-2.56241e-008,0
,,,-2.52241e-008,0
,,,-2.48241e-008,0.000441946
,,,-2.44241e-008,0.000441946
,,,-2.40241e-008,0
,,,-2.36241e-008,-0.000220973
,,,-2.32241e-008,0.000441946
,,,-2.28241e-008,0.000220973
,,,-2.24241e-008,-0.000220973
,,,-2.20241e-008,-0.000662919
,,,-2.16241e-008,-0.000220973
,,,-2.12241e-008,0
,,,-2.08241e-008,0.000441946
,,,-2.04241e-008,-0.000220973
,,,-2.00241e-008,0.000220973
,,,-1.96241e-008,0.000441946
,,,-1.92241e-008,0.000220973
,,,-1.88241e-008,0.000441946
,,,-1.84241e-008,0.000441946
,,,-1.80241e-008,0
,,,-1.76241e-008,-0.000441946
,,,-1.72241e-008,0.000441946
,,,-1.68241e-008,0.000220973
,,,-1.64241e-008,0
,,,-1.60241e-008,-0.000220973
,,,-1.56241e-008,0.000220973
,,,-1.52241e-008,0.000220973
,,,-1.48241e-008,0.000883892
,,,-1.44241e-008,0.000220973
,,,-1.40241e-008,0
,,,-1.36241e-008,0.000441946
,,,-1.32241e-008,0.000220973
,,,-1.28241e-008,0
,,,-1.24241e-008,0.000220973
,,,-1.20241e-008,0
,,,-1.16241e-008,0.000441946
,,,-1.12241e-008,0.000220973
,,,-1.08241e-008,0.000220973
,,,-1.04241e-008,-0.000220973
,,,-1.00241e-008,-0.000220973
,,,-9.62413e-009,0
,,,-9.22413e-009,0.000220973
,,,-8.82413e-009,0
,,,-8.42413e-009,0.000220973
,,,-8.02413e-009,0.000220973
,,,-7.62413e-009,0.000883892
,,,-7.22413e-009,0.000220973
,,,-6.82413e-009,0.000220973
,,,-6.42413e-009,0
,,,-6.02413e-009,-0.000441946
,,,-5.62413e-009,0
,,,-5.22413e-009,-0.000662919
,,,-4.82413e-009,-0.000441946
,,,-4.42413e-009,0.000220973
,,,-4.02413e-009,0.000441946
,,,-3.62413e-009,0.000220973
,,,-3.22413e-009,0.000220973
,,,-2.82413e-009,0.000220973
,,,-2.42413e-009,-0.000441946
,,,-2.02413e-009,-0.000441946
,,,-1.62413e-009,-0.000662919
,,,-1.22413e-009,-0.000441946
,,,-8.24126e-010,-0.000441946
,,,-4.24126e-010,-0.000220973
,,,-2.41263e-011,0.000883892
,,,3.75874e-010,0.000441946
,,,7.75874e-010,0.000441946
,,,1.17587e-009,-0.000220973
,,,1.57587e-009,0.000220973
,,,1.97587e-009,-0.000441946
,,,2.37587e-009,0.000441946
,,,2.77587e-009,-0.000441946
,,,3.17587e-009,0.000441946
,,,3.57587e-009,0.000220973
,,,3.97587e-009,0.000441946
,,,4.37587e-009,0.000883892
,,,4.77587e-009,0.000441946
,,,5.17587e-009,0.000441946
,,,5.57587e-009,0.00110486
,,,5.97587e-009,-0.000441946
,,,6.37587e-009,0
,,,6.77587e-009,0.000220973
,,,7.17587e-009,0.000441946
,,,7.57587e-009,0
,,,7.97587e-009,0
,,,8.37587e-009,-0.000220973
,,,8.77587e-009,0.000220973
,,,9.17587e-009,0.000441946
,,,9.57587e-009,0.000441946
,,,9.97587e-009,0
,,,1.03759e-008,0.000220973
,,,1.07759e-008,0
,,,1.11759e-008,0.000220973
,,,1.15759e-008,0.000220973
,,,1.19759e-008,0
,,,1.23759e-008,0.000662919
,,,1.27759e-008,0.000220973
,,,1.31759e-008,0.000441946
,,,1.35759e-008,0
,,,1.39759e-008,0.000220973
,,,1.43759e-008,0.000220973
,,,1.47759e-008,-0.000220973
,,,1.51759e-008,-0.000441946
,,,1.55759e-008,-0.000441946
,,,1.59759e-008,-0.000220973
,,,1.63759e-008,0.000662919
,,,1.67759e-008,0.000883892
,,,1.71759e-008,0.000662919
,,,1.75759e-008,0.000441946
,,,1.79759e-008,0.000220973
,,,1.83759e-008,0.000662919
,,,1.87759e-008,0.000220973
,,,1.91759e-008,0
,,,1.95759e-008,0
,,,1.99759e-008,0.000662919
,,,2.03759e-008,0.000662919
,,,2.07759e-008,0.000220973
,,,2.11759e-008,0.000441946
,,,2.15759e-008,0.000220973
,,,2.19759e-008,-0.000441946
,,,2.23759e-008,-0.000662919
,,,2.27759e-008,-0.000220973
,,,2.31759e-008,0.000662919
,,,2.35759e-008,0.000220973
,,,2.39759e-008,0.000220973
,,,2.43759e-008,0.000441946
,,,2.47759e-008,0.000883892
,,,2.51759e-008,-0.000220973
,,,2.55759e-008,0.000220973
,,,2.59759e-008,0.000220973
,,,2.63759e-008,0.000441946
,,,2.67759e-008,-0.000220973
,,,2.71759e-008,0.000662919
,,,2.75759e-008,0.000220973
,,,2.79759e-008,-0.000220973
,,,2.83759e-008,0.000441946
,,,2.87759e-008,0.000883892
,,,2.91759e-008,-0.000662919
,,,2.95759e-008,-0.000441946
,,,2.99759e-008,-0.000220973
,,,3.03759e-008,-0.000441946
,,,3.07759e-008,0.000220973
,,,3.11759e-008,0
,,,3.15759e-008,0
,,,3.19759e-008,-0.000220973
,,,3.23759e-008,0.000662919
,,,3.27759e-008,0.000662919
,,,3.31759e-008,0.000441946
,,,3.35759e-008,0.000220973
,,,3.39759e-008,-0.000441946
,,,3.43759e-008,0.000662919
,,,3.47759e-008,0
,,,3.51759e-008,0.000220973
,,,3.55759e-008,0.000441946
,,,3.59759e-008,0.000662919
,,,3.63759e-008,-0.000220973
,,,3.67759e-008,0.000220973
,,,3.71759e-008,0
,,,3.75759e-008,0.000220973
,,,3.79759e-008,0
,,,3.83759e-008,0
,,,3.87759e-008,0
,,,3.91759e-008,0
,,,3.95759e-008,-0.000662919
,,,3.99759e-008,0
,,,4.03759e-008,-0.000220973
,,,4.07759e-008,0.000441946
,,,4.11759e-008,0.000441946
,,,4.15759e-008,0.000220973
,,,4.19759e-008,0.000220973
,,,4.23759e-008,0.000441946
,,,4.27759e-008,0.000662919
,,,4.31759e-008,0.000220973
,,,4.35759e-008,0.000662919
,,,4.39759e-008,0.000883892
,,,4.43759e-008,0.000220973
,,,4.47759e-008,0.00132584
,,,4.51759e-008,0.000662919
,,,4.55759e-008,0
,,,4.59759e-008,0.000220973
