data/old/oscilloscope/C1Trace00131.txt

"Record Length",1252,"Points",-2.50392e-007,-0.000220973
"Sample Interval",4e-010,s,-2.49992e-007,-0.000883892
"Trigger Point",625,"Samples",-2.49592e-007,0
"Trigger Time",0.979332,s,-2.49192e-007,-0.000441946
,,,-2.48792e-007,0.000441946
"Horizontal Offset",-2.50392e-007,s,-2.48392e-007,0.000441946
,,,-2.47992e-007,0
,,,-2.47592e-007,-0.000441946
,,,-2.47192e-007,-0.000220973
,,,-2.46792e-007,0
,,,-2.46392e-007,0.000662919
,,,-2.45992e-007,-0.000220973
,,,-2.45592e-007,0.000220973
,,,-2.45192e-007,-0.000220973
,,,-2.44792e-007,0.000220973
,,,-2.44392e-007,-0.000441946
,,,-2.43992e-007,-0.000441946
,,,-2.43592e-007,0.000220973
,,,-2.43192e-007,-0.000441946
,,,-2.42792e-007,-0.000883892
,,,-2.42392e-007,0.000441946
,,,-2.41992e-007,0
,,,-2.41592e-007,0
,,,-2.41192e-007,0.000220973
,,,-2.40792e-007,0.000220973
,,,-2.40392e-007,0.000662919
,,,-2.39992e-007,-0.000220973
,,,-2.39592e-007,-0.000441946
,,,-2.39192e-007,0
,,,-2.38792e-007,-0.000220973
,,,-2.38392e-007,-0.000662919
,,,-2.37992e-007,0
,,,-2.37592e-007,0.000441946
,,,-2.37192e-007,0
,,,-2.36792e-007,0
,,,-2.36392e-007,0.000220973
,,,-2.35992e-007,0
,,,-2.35592e-007,0.000662919
,,,-2.35192e-007,-0.000220973
,,,-2.34792e-007,-0.000441946
,,,-2.34392e-007,-0.000220973
,,,-2.33992e-007,0
,,,-2.33592e-007,-0.000441946
,,,-2.33192e-007,-0.000220973
,,,-2.32792e-007,-0.000220973
,,,-2.32392e-007,0.000220973
,,,-2.31992e-007,0.000220973
,,,-2.31592e-007,0.000220973
,,,-2.31192e-007,0.000220973
,,,-2.30792e-007,0.000883892
,,,-2.30392e-007,-0.000441946
,,,-2.29992e-007,-0.000441946
,,,-2.29592e-007,0
,,,-2.29192e-007,0.000220973
,,,-2.28792e-007,0
,,,-2.28392e-007,-0.000883892
,,,-2.27992e-007,-0.000220973
,,,-2.27592e-007,0
,,,-2.27192e-007,-0.000220973
,,,-2.26792e-007,0
,,,-2.26392e-007,0
,,,-2.25992e-007,-0.000441946
,,,-2.25592e-007,0
,,,-2.25192e-007,-0.000220973
,,,-2.24792e-007,-0.000220973
,,,-2.24392e-007,0.000662919
,,,-2.23992e-007,0.000441946
,,,-2.23592e-007,-0.000220973
,,,-2.23192e-007,0
,,,-2.22792e-007,0.000662919
,,,-2.22392e-007,-0.000441946
,,,-2.21992e-007,-0.000220973
,,,-2.21592e-007,0
,,,-2.21192e-007,0.000883892
,,,-2.20792e-007,0.000220973
,,,-2.20392e-007,-0.000220973
,,,-2.19992e-007,-0.000220973
,,,-2.19592e-007,-0.000220973
,,,-2.19192e-007,-0.000220973
,,,-2.18792e-007,-0.000883892
,,,-2.18392e-007,-0.000220973
,,,-2.17992e-007,-0.000662919
,,,-2.17592e-007,-0.000441946
,,,-2.17192e-007,-0.000662919
,,,-2.16792e-007,0.000662919
,,,-2.16392e-007,0.000441946
,,,-2.15992e-007,-0.000220973
,,,-2.15592e-007,-0.000441946
,,,-2.15192e-007,-0.000662919
,,,-2.14792e-007,-0.000220973
,,,-2.14392e-007,0.000441946
,,,-2.13992e-007,0.000662919
,,,-2.13592e-007,0
,,,-2.13192e-007,-0.000220973
,,,-2.12792e-007,0.000441946
,,,-2.12392e-007,-0.000441946
,,,-2.11992e-007,0.000441946
,,,-2.11592e-007,0
,,,-2.11192e-007,-0.000883892
,,,-2.10792e-007,-0.000441946
,,,-2.10392e-007,-0.000220973
,,,-2.09992e-007,0.000220973
,,,-2.09592e-007,0.000883892
,,,-2.09192e-007,0.000441946
,,,-2.08792e-007,-0.000662919
,,,-2.08392e-007,0
,,,-2.07992e-007,-0.000220973
,,,-2.07592e-007,-0.000441946
,,,-2.07192e-007,0.000662919
,,,-2.06792e-007,0.000220973
,,,-2.06392e-007,-0.000883892
,,,-2.05992e-007,0.000220973
,,,-2.05592e-007,0.000883892
,,,-2.05192e-007,0.000220973
,,,-2.04792e-007,-0.000220973
,,,-2.04392e-007,-0.000441946
,,,-2.03992e-007,-0.000441946
,,,-2.03592e-007,0.000441946
,,,-2.03192e-007,-0.000220973
,,,-2.02792e-007,0
,,,-2.02392e-007,-0.000441946
,,,-2.01992e-007,-0.000441946
,,,-2.01592e-007,0.000220973
,,,-2.01192e-007,0
,,,-2.00792e-007,0.000441946
,,,-2.00392e-007,0.000441946
,,,-1.99992e-007,0.000220973
,,,-1.99592e-007,0
,,,-1.99192e-007,-0.000220973
,,,-1.98792e-007,-0.000220973
,,,-1.98392e-007,-0.000220973
,,,-1.97992e-007,0.000441946
,,,-1.97592e-007,0
,,,-1.97192e-007,-0.000220973
,,,-1.96792e-007,-0.000220973
,,,-1.96392e-007,-0.000220973
,,,-1.95992e-007,0.000220973
,,,-1.95592e-007,0.000220973
,,,-1.95192e-007,-0.000662919
,,,-1.94792e-007,0
,,,-1.94392e-007,-0.000220973
,,,-1.93992e-007,-0.000662919
,,,-1.93592e-007,-0.000883892
,,,-1.93192e-007,0
,,,-1.92792e-007,0
,,,-1.92392e-007,0.000662919
,,,-1.91992e-007,0
,,,-1.91592e-007,0
,,,-1.91192e-007,-0.000220973
,,,-1.90792e-007,-0.000220973
,,,-1.90392e-007,-0.000220973
,,,-1.89992e-007,-0.000220973
,,,-1.89592e-007,-0.000441946
,,,-1.89192e-007,0.000441946
,,,-1.88792e-007,0.000662919
,,,-1.88392e-007,0.000220973
,,,-1.87992e-007,-0.000441946
,,,-1.87592e-007,-0.000220973
,,,-1.87192e-007,0.000220973
,,,-1.86792e-007,0.000220973
,,,-1.86392e-007,-0.000220973
,,,-1.85992e-007,-0.000220973
,,,-1.85592e-007,0.000220973
,,,-1.85192e-007,-0.000220973
,,,-1.84792e-007,0
,,,-1.84392e-007,0
,,,-1.83992e-007,-0.000220973
,,,-1.83592e-007,0
,,,-1.83192e-007,0.000220973
,,,-1.82792e-007,0.000220973
,,,-1.82392e-007,0
,,,-1.81992e-007,0.000441946
,,,-1.81592e-007,0.000441946
,,,-1.81192e-007,-0.000441946
,,,-1.80792e-007,0.000441946
,,,-1.80392e-007,0.000441946
,,,-1.79992e-007,0.000441946
,,,-1.79592e-007,-0.000441946
,,,-1.79192e-007,-0.000220973
,,,-1.78792e-007,0
,,,-1.78392e-007,0
,,,-1.77992e-007,-0.000441946
,,,-1.77592e-007,0.000441946
,,,-1.77192e-007,0.000441946
,,,-1.76792e-007,0.000662919
,,,-1.76392e-007,0.000220973
,,,-1.75992e-007,0.000220973
,,,-1.75592e-007,-0.000220973
,,,-1.75192e-007,-0.000441946
,,,-1.74792e-007,-0.000220973
,,,-1.74392e-007,-0.000220973
,,,-1.73992e-007,-0.000441946
,,,-1.73592e-007,0.000220973
,,,-1.73192e-007,0.000662919
,,,-1.72792e-007,0.000441946
,,,-1.72392e-007,-0.000220973
,,,-1.71992e-007,-0.000441946
,,,-1.71592e-007,0
,,,-1.71192e-007,-0.000441946
,,,-1.70792e-007,0
,,,-1.70392e-007,-0.000220973
,,,-1.69992e-007,-0.000662919
,,,-1.69592e-007,0.000662919
,,,-1.69192e-007,0.000220973
,,,-1.68792e-007,0
,,,-1.68392e-007,0.000441946
,,,-1.67992e-007,-0.000220973
,,,-1.67592e-007,-0.000441946
,,,-1.67192e-007,-0.000220973
,,,-1.66792e-007,0
,,,-1.66392e-007,-0.000883892
,,,-1.65992e-007,-0.000220973
,,,-1.65592e-007,-0.000662919
,,,-1.65192e-007,-0.000220973
,,,-1.64792e-007,0.000441946
,,,-1.64392e-007,-0.000441946
,,,-1.63992e-007,0.000220973
,,,-1.63592e-007,0.000662919
,,,-1.63192e-007,0.000220973
,,,-1.62792e-007,-0.000220973
,,,-1.62392e-007,-0.000220973
,,,-1.61992e-007,-0.000662919
,,,-1.61592e-007,-0.000220973
,,,-1.61192e-007,0.000220973
,,,-1.60792e-007,0.000220973
,,,-1.60392e-007,0
,,,-1.59992e-007,0.000662919
,,,-1.59592e-007,-0.000662919
,,,-1.59192e-007,0
,,,-1.58792e-007,0.000441946
,,,-1.58392e-007,0.000441946
,,,-1.57992e-007,0
,,,-1.57592e-007,0.000441946
,,,-1.57192e-007,0
,,,-1.56792e-007,0.000220973
,,,-1.56392e-007,0
,,,-1.55992e-007,0.000220973
,,,-1.55592e-007,0.000220973
,,,-1.55192e-007,0
,,,-1.54792e-007,0
,,,-1.54392e-007,0
,,,-1.53992e-007,-0.000441946
,,,-1.53592e-007,-0.000883892
,,,-1.53192e-007,-0.000220973
,,,-1.52792e-007,0.000441946
,,,-1.52392e-007,0
,,,-1.51992e-007,-0.000220973
,,,-1.51592e-007,-0.000662919
,,,-1.51192e-007,0.000220973
,,,-1.50792e-007,0
,,,-1.50392e-007,-0.000220973
,,,-1.49992e-007,-0.000441946
,,,-1.49592e-007,0.000220973
,,,-1.49192e-007,0
,,,-1.48792e-007,-0.000220973
,,,-1.48392e-007,-0.000220973
,,,-1.47992e-007,0.000441946
,,,-1.47592e-007,0.000441946
,,,-1.47192e-007,0.000220973
,,,-1.46792e-007,-0.000441946
,,,-1.46392e-007,-0.000662919
,,,-1.45992e-007,-0.000883892
,,,-1.45592e-007,0
,,,-1.45192e-007,-0.000220973
,,,-1.44792e-007,0
,,,-1.44392e-007,-0.000662919
,,,-1.43992e-007,-0.000220973
,,,-1.43592e-007,0
,,,-1.43192e-007,0.000220973
,,,-1.42792e-007,-0.000441946
,,,-1.42392e-007,0
,,,-1.41992e-007,0
,,,-1.41592e-007,-0.000441946
,,,-1.41192e-007,-0.000662919
,,,-1.40792e-007,0.000883892
,,,-1.40392e-007,0.000883892
,,,-1.39992e-007,0
,,,-1.39592e-007,0
,,,-1.39192e-007,-0.000441946
,,,-1.38792e-007,-0.000441946
,,,-1.38392e-007,-0.000441946
,,,-1.37992e-007,0
,,,-1.37592e-007,-0.000220973
,,,-1.37192e-007,-0.000883892
,,,-1.36792e-007,-0.000441946
,,,-1.36392e-007,0.000220973
,,,-1.35992e-007,0.000662919
,,,-1.35592e-007,-0.000662919
,,,-1.35192e-007,0.000220973
,,,-1.34792e-007,0.000441946
,,,-1.34392e-007,-0.000220973
,,,-1.33992e-007,0.000662919
,,,-1.33592e-007,0.000662919
,,,-1.33192e-007,-0.000220973
,,,-1.32792e-007,-0.000662919
,,,-1.32392e-007,-0.000220973
,,,-1.31992e-007,0.000441946
,,,-1.31592e-007,0
,,,-1.31192e-007,-0.000441946
,,,-1.30792e-007,-0.000441946
,,,-1.30392e-007,-0.000220973
,,,-1.29992e-007,0.000441946
,,,-1.29592e-007,0.000441946
,,,-1.29192e-007,0
,,,-1.28792e-007,-0.000441946
,,,-1.28392e-007,0.000220973
,,,-1.27992e-007,-0.000220973
,,,-1.27592e-007,-0.000441946
,,,-1.27192e-007,0.000220973
,,,-1.26792e-007,-0.000441946
,,,-1.26392e-007,-0.000441946
,,,-1.25992e-007,-0.000441946
,,,-1.25592e-007,-0.000662919
,,,-1.25192e-007,0.000662919
,,,-1.24792e-007,0.000220973
,,,-1.24392e-007,0
,,,-1.23992e-007,-0.000220973
,,,-1.23592e-007,0.000220973
,,,-1.23192e-007,-0.000441946
,,,-1.22792e-007,-0.000220973
,,,-1.22392e-007,0
,,,-1.21992e-007,0.000441946
,,,-1.21592e-007,0.000220973
,,,-1.21192e-007,0.000220973
,,,-1.20792e-007,0.000441946
,,,-1.20392e-007,0.00110486
,,,-1.19992e-007,-0.000220973
,,,-1.19592e-007,0
,,,-1.19192e-007,0.000441946
,,,-1.18792e-007,0
,,,-1.18392e-007,0.000220973
,,,-1.17992e-007,0.000441946
,,,-1.17592e-007,0
,,,-1.17192e-007,-0.000662919
,,,-1.16792e-007,0.00110486
,,,-1.16392e-007,-0.000220973
,,,-1.15992e-007,0.000220973
,,,-1.15592e-007,0
,,,-1.15192e-007,-0.000220973
,,,-1.14792e-007,0
,,,-1.14392e-007,0
,,,-1.13992e-007,-0.000441946
,,,-1.13592e-007,0
,,,-1.13192e-007,0
,,,-1.12792e-007,0
,,,-1.12392e-007,-0.000441946
,,,-1.11992e-007,-0.000662919
,,,-1.11592e-007,-0.000220973
,,,-1.11192e-007,0.000441946
,,,-1.10792e-007,0.000220973
,,,-1.10392e-007,-0.000220973
,,,-1.09992e-007,0.000220973
,,,-1.09592e-007,0.000441946
,,,-1.09192e-007,0.000662919
,,,-1.08792e-007,0.000662919
,,,-1.08392e-007,-0.000662919
,,,-1.07992e-007,-0.000883892
,,,-1.07592e-007,-0.000441946
,,,-1.07192e-007,-0.000441946
,,,-1.06792e-007,-0.000441946
,,,-1.06392e-007,0
,,,-1.05992e-007,0
,,,-1.05592e-007,-0.000220973
,,,-1.05192e-007,0.000220973
,,,-1.04792e-007,0.000220973
,,,-1.04392e-007,0.000220973
,,,-1.03992e-007,0.000441946
,,,-1.03592e-007,0.000441946
,,,-1.03192e-007,0.000220973
,,,-1.02792e-007,0.000441946
,,,-1.02392e-007,0
,,,-1.01992e-007,0
,,,-1.01592e-007,0.000220973
,,,-1.01192e-007,-0.000441946
,,,-1.00792e-007,0.000220973
,,,-1.00392e-007,0.000441946
,,,-9.99917e-008,0.000662919
,,,-9.95917e-008,-0.000441946
,,,-9.91917e-008,-0.000662919
,,,-9.87917e-008,0.000662919
,,,-9.83917e-008,0
,,,-9.79917e-008,-0.00110486
,,,-9.75917e-008,-0.000220973
,,,-9.71917e-008,0
,,,-9.67917e-008,0
,,,-9.63917e-008,0.000441946
,,,-9.59917e-008,0.000220973
,,,-9.55917e-008,0
,,,-9.51917e-008,0.000441946
,,,-9.47917e-008,0.000441946
,,,-9.43917e-008,0.000220973
,,,-9.39917e-008,0.000441946
,,,-9.35917e-008,-0.000441946
,,,-9.31917e-008,0
,,,-9.27917e-008,0
,,,-9.23917e-008,0
,,,-9.19917e-008,-0.000220973
,,,-9.15917e-008,0
,,,-9.11917e-008,-0.00110486
,,,-9.07917e-008,-0.000441946
,,,-9.03917e-008,-0.000662919
,,,-8.99917e-008,0
,,,-8.95917e-008,0
,,,-8.91917e-008,-0.000441946
,,,-8.87917e-008,-0.000220973
,,,-8.83917e-008,-0.000220973
,,,-8.79917e-008,0.000441946
,,,-8.75917e-008,-0.000441946
,,,-8.71917e-008,0.000220973
,,,-8.67917e-008,0
,,,-8.63917e-008,-0.000220973
,,,-8.59917e-008,0
,,,-8.55917e-008,0
,,,-8.51917e-008,-0.000220973
,,,-8.47917e-008,0
,,,-8.43917e-008,0
,,,-8.39917e-008,0
,,,-8.35917e-008,0
,,,-8.31917e-008,-0.000662919
,,,-8.27917e-008,0
,,,-8.23917e-008,-0.000220973
,,,-8.19917e-008,-0.000662919
,,,-8.15917e-008,-0.000220973
,,,-8.11917e-008,-0.000441946
,,,-8.07917e-008,-0.000220973
,,,-8.03917e-008,0.000220973
,,,-7.99917e-008,-0.000220973
,,,-7.95917e-008,-0.000441946
,,,-7.91917e-008,-0.000220973
,,,-7.87917e-008,-0.000441946
,,,-7.83917e-008,0
,,,-7.79917e-008,0
,,,-7.75917e-008,-0.000220973
,,,-7.71917e-008,0.000662919
,,,-7.67917e-008,-0.000220973
,,,-7.63917e-008,-0.000220973
,,,-7.59917e-008,-0.000441946
,,,-7.55917e-008,-0.000441946
,,,-7.51917e-008,0
,,,-7.47917e-008,0.000220973
,,,-7.43917e-008,-0.000220973
,,,-7.39917e-008,-0.000662919
,,,-7.35917e-008,0.000220973
,,,-7.31917e-008,-0.000220973
,,,-7.27917e-008,0.000662919
,,,-7.23917e-008,0
,,,-7.19917e-008,0
,,,-7.15917e-008,-0.000441946
,,,-7.11917e-008,0.000883892
,,,-7.07917e-008,-0.000220973
,,,-7.03917e-008,-0.000662919
,,,-6.99917e-008,0
,,,-6.95917e-008,-0.000220973
,,,-6.91917e-008,-0.000220973
,,,-6.87917e-008,0
,,,-6.83917e-008,-0.000441946
,,,-6.79917e-008,-0.000441946
,,,-6.75917e-008,-0.000220973
,,,-6.71917e-008,-0.000662919
,,,-6.67917e-008,0
,,,-6.63917e-008,0
,,,-6.59917e-008,-0.000662919
,,,-6.55917e-008,-0.000662919
,,,-6.51917e-008,-0.000883892
,,,-6.47917e-008,0
,,,-6.43917e-008,0.000441946
,,,-6.39917e-008,0.000220973
,,,-6.35917e-008,-0.000441946
,,,-6.31917e-008,0
,,,-6.27917e-008,0.000220973
,,,-6.23917e-008,-0.000220973
,,,-6.19917e-008,0
,,,-6.15917e-008,0.000441946
,,,-6.11917e-008,0.000441946
,,,-6.07917e-008,-0.000441946
,,,-6.03917e-008,-0.000441946
,,,-5.99917e-008,-0.000883892
,,,-5.95917e-008,0.000220973
,,,-5.91917e-008,0.000441946
,,,-5.87917e-008,-0.000220973
,,,-5.83917e-008,0.000220973
,,,-5.79917e-008,-0.000441946
,,,-5.75917e-008,-0.000662919
,,,-5.71917e-008,0
,,,-5.67917e-008,0.000883892
,,,-5.63917e-008,0.000441946
,,,-5.59917e-008,0
,,,-5.55917e-008,0
,,,-5.51917e-008,-0.000220973
,,,-5.47917e-008,0
,,,-5.43917e-008,-0.000220973
,,,-5.39917e-008,0
,,,-5.35917e-008,0
,,,-5.31917e-008,-0.000220973
,,,-5.27917e-008,0.000441946
,,,-5.23917e-008,0.000441946
,,,-5.19917e-008,0
,,,-5.15917e-008,-0.000441946
,,,-5.11917e-008,-0.000662919
,,,-5.07917e-008,-0.000220973
,,,-5.03917e-008,-0.000220973
,,,-4.99917e-008,-0.000220973
,,,-4.95917e-008,0.000441946
,,,-4.91917e-008,-0.000441946
,,,-4.87917e-008,-0.000220973
,,,-4.83917e-008,-0.000220973
,,,-4.79917e-008,-0.000441946
,,,-4.75917e-008,-0.000220973
,,,-4.71917e-008,0.000441946
,,,-4.67917e-008,0
,,,-4.63917e-008,-0.000883892
,,,-4.59917e-008,0.000441946
,,,-4.55917e-008,0.000220973
,,,-4.51917e-008,0.000220973
,,,-4.47917e-008,0.000441946
,,,-4.43917e-008,0
,,,-4.39917e-008,0
,,,-4.35917e-008,-0.000220973
,,,-4.31917e-008,-0.000662919
,,,-4.27917e-008,-0.000662919
,,,-4.23917e-008,-0.000883892
,,,-4.19917e-008,-0.000662919
,,,-4.15917e-008,-0.000441946
,,,-4.11917e-008,-0.000883892
,,,-4.07917e-008,-0.000220973
,,,-4.03917e-008,0
,,,-3.99917e-008,0.00110486
,,,-3.95917e-008,0.000220973
,,,-3.91917e-008,0.000220973
,,,-3.87917e-008,0.000883892
,,,-3.83917e-008,0.000220973
,,,-3.79917e-008,0
,,,-3.75917e-008,0.000441946
,,,-3.71917e-008,0
,,,-3.67917e-008,-0.000220973
,,,-3.63917e-008,-0.000883892
,,,-3.59917e-008,-0.000441946
,,,-3.55917e-008,-0.000220973
,,,-3.51917e-008,0
,,,-3.47917e-008,0.000662919
,,,-3.43917e-008,0.000220973
,,,-3.39917e-008,-0.000220973
,,,-3.35917e-008,0
,,,-3.31917e-008,0
,,,-3.27917e-008,-0.000441946
,,,-3.23917e-008,0
,,,-3.19917e-008,0.000220973
,,,-3.15917e-008,-0.000220973
,,,-3.11917e-008,-0.000220973
,,,-3.07917e-008,-0.000441946
,,,-3.03917e-008,-0.000220973
,,,-2.99917e-008,0.000220973
,,,-2.95917e-008,0.000220973
,,,-2.91917e-008,0.000441946
,,,-2.87917e-008,0
,,,-2.83917e-008,0.000441946
,,,-2.79917e-008,0.000662919
,,,-2.75917e-008,-0.000441946
,,,-2.71917e-008,-0.000220973
,,,-2.67917e-008,-0.00110486
,,,-2.63917e-008,-0.000662919
,,,-2.59917e-008,-0.000883892
,,,-2.55917e-008,-0.000220973
,,,-2.51917e-008,0
,,,-2.47917e-008,0.000220973
,,,-2.43917e-008,0.000662919
,,,-2.39917e-008,0.000220973
,,,-2.35917e-008,0
,,,-2.31917e-008,0
,,,-2.27917e-008,0
,,,-2.23917e-008,-0.000441946
,,,-2.19917e-008,-0.000220973
,,,-2.15917e-008,0.000883892
,,,-2.11917e-008,0.000220973
,,,-2.07917e-008,0.000220973
,,,-2.03917e-008,-0.000441946
,,,-1.99917e-008,0
,,,-1.95917e-008,0.000220973
,,,-1.91917e-008,-0.000441946
,,,-1.87917e-008,-0.000220973
,,,-1.83917e-008,0.000220973
,,,-1.79917e-008,-0.000220973
,,,-1.75917e-008,0.000220973
,,,-1.71917e-008,0
,,,-1.67917e-008,0
,,,-1.63917e-008,0
,,,-1.59917e-008,-0.000220973
,,,-1.55917e-008,0.000220973
,,,-1.51917e-008,0.000441946
,,,-1.47917e-008,-0.000662919
,,,-1.43917e-008,-0.000220973
,,,-1.39917e-008,-0.000220973
,,,-1.35917e-008,0.000441946
,,,-1.31917e-008,-0.000662919
,,,-1.27917e-008,0
,,,-1.23917e-008,-0.000883892
,,,-1.19917e-008,-0.000662919
,,,-1.15917e-008,0.000220973
,,,-1.11917e-008,-0.000441946
,,,-1.07917e-008,0
,,,-1.03917e-008,-0.000220973
,,,-9.99173e-009,-0.000662919
,,,-9.59173e-009,-0.000441946
,,,-9.19173e-009,-0.000662919
,,,-8.79173e-009,0.000220973
,,,-8.39173e-009,-0.000220973
,,,-7.99173e-009,-0.000220973
,,,-7.59173e-009,-0.000883892
,,,-7.19173e-009,0
,,,-6.79173e-009,-0.000220973
,,,-6.39173e-009,0
,,,-5.99173e-009,0.000441946
,,,-5.59173e-009,-0.000441946
,,,-5.19173e-009,0
,,,-4.79173e-009,-0.000441946
,,,-4.39173e-009,0
,,,-3.99173e-009,0.000220973
,,,-3.59173e-009,-0.000220973
,,,-3.19173e-009,-0.000220973
,,,-2.79173e-009,-0.000220973
,,,-2.39173e-009,-0.000662919
,,,-1.99173e-009,-0.000220973
,,,-1.59173e-009,0.000441946
,,,-1.19173e-009,-0.000883892
,,,-7.91733e-010,0
,,,-3.91733e-010,0.000441946
,,,8.2671e-012,-0.000441946
,,,4.08267e-010,-0.000220973
,,,8.08267e-010,-0.000220973
,,,1.20827e-009,0
,,,1.60827e-009,-0.000662919
,,,2.00827e-009,-0.000662919
,,,2.40827e-009,0.000220973
,,,2.80827e-009,0.000220973
,,,3.20827e-009,0.000441946
,,,3.60827e-009,0.000220973
,,,4.00827e-009,-0.000220973
,,,4.40827e-009,0
,,,4.80827e-009,0
,,,5.20827e-009,-0.00110486
,,,5.60827e-009,-0.000220973
,,,6.00827e-009,-0.000220973
,,,6.40827e-009,0
,,,6.80827e-009,0
,,,7.20827e-009,0.000220973
,,,7.60827e-009,-0.000662919
,,,8.00827e-009,-0.000220973
,,,8.40827e-009,-0.000220973
,,,8.80827e-009,0.000220973
,,,9.20827e-009,-0.000220973
,,,9.60827e-009,0
,,,1.00083e-008,0
,,,1.04083e-008,-0.000662919
,,,1.08083e-008,-0.000441946
,,,1.12083e-008,0.000220973
,,,1.16083e-008,-0.000441946
,,,1.20083e-008,-0.000441946
,,,1.24083e-008,-0.000441946
,,,1.28083e-008,0
,,,1.32083e-008,-0.000441946
,,,1.36083e-008,0.000220973
,,,1.40083e-008,-0.000662919
,,,1.44083e-008,0
,,,1.48083e-008,-0.000662919
,,,1.52083e-008,0.000441946
,,,1.56083e-008,0
,,,1.60083e-008,-0.000441946
,,,1.64083e-008,-0.000220973
,,,1.68083e-008,-0.000220973
,,,1.72083e-008,-0.000662919
,,,1.76083e-008,-0.000441946
,,,1.80083e-008,0.000441946
,,,1.84083e-008,0.000441946
,,,1.88083e-008,-0.000441946
,,,1.92083e-008,0.000441946
,,,1.96083e-008,0
,,,2.00083e-008,-0.000220973
,,,2.04083e-008,0.000220973
,,,2.08083e-008,-0.000220973
,,,2.12083e-008,0
,,,2.16083e-008,-0.000883892
,,,2.20083e-008,-0.000441946
,,,2.24083e-008,-0.000441946
,,,2.28083e-008,0
,,,2.32083e-008,0.000441946
,,,2.36083e-008,0.000662919
,,,2.40083e-008,0.000220973
,,,2.44083e-008,-0.000220973
,,,2.48083e-008,0.000441946
,,,2.52083e-008,0
,,,2.56083e-008,0.000220973
,,,2.60083e-008,0.000441946
,,,2.64083e-008,-0.000441946
,,,2.68083e-008,0
,,,2.72083e-008,0
,,,2.76083e-008,0.000220973
,,,2.80083e-008,-0.000220973
,,,2.84083e-008,-0.000441946
,,,2.88083e-008,-0.000441946
,,,2.92083e-008,-0.000441946
,,,2.96083e-008,-0.000441946
,,,3.00083e-008,-0.000220973
,,,3.04083e-008,-0.000441946
,,,3.08083e-008,0
,,,3.12083e-008,0
,,,3.16083e-008,0
,,,3.20083e-008,0
,,,3.24083e-008,-0.000220973
,,,3.28083e-008,0
,,,3.32083e-008,-0.000220973
,,,3.36083e-008,0.000220973
,,,3.40083e-008,-0.000441946
,,,3.44083e-008,0.000220973
,,,3.48083e-008,0.000220973
,,,3.52083e-008,-0.000220973
,,,3.56083e-008,-0.000662919
,,,3.60083e-008,-0.000441946
,,,3.64083e-008,0
,,,3.68083e-008,0.000441946
,,,3.72083e-008,0
,,,3.76083e-008,0.000220973
,,,3.80083e-008,0
,,,3.84083e-008,-0.000220973
,,,3.88083e-008,0
,,,3.92083e-008,0.000441946
,,,3.96083e-008,0
,,,4.00083e-008,0
,,,4.04083e-008,-0.000883892
,,,4.08083e-008,0
,,,4.12083e-008,0
,,,4.16083e-008,-0.000441946
,,,4.20083e-008,-0.000441946
,,,4.24083e-008,-0.000220973
,,,4.28083e-008,-0.000220973
,,,4.32083e-008,0.000220973
,,,4.36083e-008,0
