data/old/oscilloscope/C1Trace00220.txt

"Record Length",1252,"Points",-2.50392e-007,0
"Sample Interval",4e-010,s,-2.49992e-007,0.000441946
"Trigger Point",625,"Samples",-2.49592e-007,0.00132584
"Trigger Time",0.980778,s,-2.49192e-007,0.000662919
,,,-2.48792e-007,0
"Horizontal Offset",-2.50392e-007,s,-2.48392e-007,0.000220973
,,,-2.47992e-007,-0.000220973
,,,-2.47592e-007,0.000220973
,,,-2.47192e-007,0.000662919
,,,-2.46792e-007,0.000883892
,,,-2.46392e-007,0.000220973
,,,-2.45992e-007,0.000883892
,,,-2.45592e-007,0
,,,-2.45192e-007,0
,,,-2.44792e-007,0.000220973
,,,-2.44392e-007,-0.000662919
,,,-2.43992e-007,0.000441946
,,,-2.43592e-007,0.000220973
,,,-2.43192e-007,0
,,,-2.42792e-007,0.000220973
,,,-2.42392e-007,0
,,,-2.41992e-007,0.000220973
,,,-2.41592e-007,-0.000220973
,,,-2.41192e-007,0.000441946
,,,-2.40792e-007,0.000441946
,,,-2.40392e-007,0
,,,-2.39992e-007,0.000220973
,,,-2.39592e-007,0.000220973
,,,-2.39192e-007,0
,,,-2.38792e-007,-0.000441946
,,,-2.38392e-007,0
,,,-2.37992e-007,0
,,,-2.37592e-007,-0.000662919
,,,-2.37192e-007,-0.000441946
,,,-2.36792e-007,-0.000220973
,,,-2.36392e-007,-0.000441946
,,,-2.35992e-007,0.000220973
,,,-2.35592e-007,-0.000441946
,,,-2.35192e-007,0.000883892
,,,-2.34792e-007,0.000220973
,,,-2.34392e-007,0.000220973
,,,-2.33992e-007,0
,,,-2.33592e-007,0
,,,-2.33192e-007,0.000220973
,,,-2.32792e-007,0
,,,-2.32392e-007,-0.000441946
,,,-2.31992e-007,0.000883892
,,,-2.31592e-007,0
,,,-2.31192e-007,0.000662919
,,,-2.30792e-007,0
,,,-2.30392e-007,0.000220973
,,,-2.29992e-007,0
,,,-2.29592e-007,-0.000441946
,,,-2.29192e-007,0.000220973
,,,-2.28792e-007,0
,,,-2.28392e-007,0.000220973
,,,-2.27992e-007,0.000883892
,,,-2.27592e-007,-0.000441946
,,,-2.27192e-007,0.000662919
,,,-2.26792e-007,0.000441946
,,,-2.26392e-007,-0.000220973
,,,-2.25992e-007,-0.000441946
,,,-2.25592e-007,0.000883892
,,,-2.25192e-007,0
,,,-2.24792e-007,-0.000441946
,,,-2.24392e-007,-0.000441946
,,,-2.23992e-007,0.000220973
,,,-2.23592e-007,0.000441946
,,,-2.23192e-007,0.000883892
,,,-2.22792e-007,0.000441946
,,,-2.22392e-007,0.000662919
,,,-2.21992e-007,0.000220973
,,,-2.21592e-007,0.000220973
,,,-2.21192e-007,0.000441946
,,,-2.20792e-007,-0.000220973
,,,-2.20392e-007,0.000220973
,,,-2.19992e-007,0.000220973
,,,-2.19592e-007,0
,,,-2.19192e-007,0.000220973
,,,-2.18792e-007,-0.000441946
,,,-2.18392e-007,0.000220973
,,,-2.17992e-007,-0.000662919
,,,-2.17592e-007,0
,,,-2.17192e-007,0
,,,-2.16792e-007,0
,,,-2.16392e-007,0.000662919
,,,-2.15992e-007,0.000883892
,,,-2.15592e-007,-0.000220973
,,,-2.15192e-007,0.000220973
,,,-2.14792e-007,0.000883892
,,,-2.14392e-007,0
,,,-2.13992e-007,0
,,,-2.13592e-007,0.000441946
,,,-2.13192e-007,0
,,,-2.12792e-007,0.000220973
,,,-2.12392e-007,0.000220973
,,,-2.11992e-007,0
,,,-2.11592e-007,-0.000662919
,,,-2.11192e-007,0.000220973
,,,-2.10792e-007,0
,,,-2.10392e-007,0.000220973
,,,-2.09992e-007,0
,,,-2.09592e-007,0.000662919
,,,-2.09192e-007,-0.000441946
,,,-2.08792e-007,0.000441946
,,,-2.08392e-007,0.000220973
,,,-2.07992e-007,0
,,,-2.07592e-007,-0.000441946
,,,-2.07192e-007,0.000220973
,,,-2.06792e-007,-0.000220973
,,,-2.06392e-007,-0.000220973
,,,-2.05992e-007,0.000220973
,,,-2.05592e-007,0.000220973
,,,-2.05192e-007,-0.000441946
,,,-2.04792e-007,0
,,,-2.04392e-007,0.000441946
,,,-2.03992e-007,0.000883892
,,,-2.03592e-007,0.000441946
,,,-2.03192e-007,0.000220973
,,,-2.02792e-007,0.000441946
,,,-2.02392e-007,-0.000220973
,,,-2.01992e-007,-0.000220973
,,,-2.01592e-007,0.000662919
,,,-2.01192e-007,0
,,,-2.00792e-007,0
,,,-2.00392e-007,0
,,,-1.99992e-007,0.000441946
,,,-1.99592e-007,0.000441946
,,,-1.99192e-007,0.000220973
,,,-1.98792e-007,0.000220973
,,,-1.98392e-007,0.000441946
,,,-1.97992e-007,0.000883892
,,,-1.97592e-007,-0.000220973
,,,-1.97192e-007,-0.000441946
,,,-1.96792e-007,0.000220973
,,,-1.96392e-007,-0.000883892
,,,-1.95992e-007,0
,,,-1.95592e-007,-0.000883892
,,,-1.95192e-007,0.000441946
,,,-1.94792e-007,0.000220973
,,,-1.94392e-007,0.000662919
,,,-1.93992e-007,-0.000220973
,,,-1.93592e-007,0.000220973
,,,-1.93192e-007,0.000220973
,,,-1.92792e-007,0.000441946
,,,-1.92392e-007,0.000441946
,,,-1.91992e-007,0.000883892
,,,-1.91592e-007,0.000441946
,,,-1.91192e-007,0.000441946
,,,-1.90792e-007,-0.000220973
,,,-1.90392e-007,0.000441946
,,,-1.89992e-007,0.000220973
,,,-1.89592e-007,-0.000220973
,,,-1.89192e-007,-0.000441946
,,,-1.88792e-007,0
,,,-1.88392e-007,0.000441946
,,,-1.87992e-007,0
,,,-1.87592e-007,0
,,,-1.87192e-007,0.000220973
,,,-1.86792e-007,0
,,,-1.86392e-007,-0.000220973
,,,-1.85992e-007,0.000662919
,,,-1.85592e-007,0.000441946
,,,-1.85192e-007,0
,,,-1.84792e-007,0.000662919
,,,-1.84392e-007,0.000441946
,,,-1.83992e-007,0.000441946
,,,-1.83592e-007,0.000883892
,,,-1.83192e-007,0.000220973
,,,-1.82792e-007,0.000441946
,,,-1.82392e-007,0.000441946
,,,-1.81992e-007,0.000220973
,,,-1.81592e-007,0.000220973
,,,-1.81192e-007,-0.000441946
,,,-1.80792e-007,0.000220973
,,,-1.80392e-007,-0.000441946
,,,-1.79992e-007,0.000220973
,,,-1.79592e-007,0.000220973
,,,-1.79192e-007,0
,,,-1.78792e-007,0
,,,-1.78392e-007,0.000220973
,,,-1.77992e-007,-0.000220973
,,,-1.77592e-007,0.000220973
,,,-1.77192e-007,0
,,,-1.76792e-007,-0.000220973
,,,-1.76392e-007,0
,,,-1.75992e-007,0.000441946
,,,-1.75592e-007,0.000220973
,,,-1.75192e-007,0.000220973
,,,-1.74792e-007,0.000220973
,,,-1.74392e-007,0.000662919
,,,-1.73992e-007,0.000441946
,,,-1.73592e-007,-0.000220973
,,,-1.73192e-007,-0.000220973
,,,-1.72792e-007,0
,,,-1.72392e-007,-0.000441946
,,,-1.71992e-007,0
,,,-1.71592e-007,0.000220973
,,,-1.71192e-007,0.000662919
,,,-1.70792e-007,0
,,,-1.70392e-007,0.000441946
,,,-1.69992e-007,0.000883892
,,,-1.69592e-007,0.000662919
,,,-1.69192e-007,-0.000220973
,,,-1.68792e-007,-0.000220973
,,,-1.68392e-007,0.000220973
,,,-1.67992e-007,0.000662919
,,,-1.67592e-007,-0.000220973
,,,-1.67192e-007,0
,,,-1.66792e-007,0
,,,-1.66392e-007,0.000662919
,,,-1.65992e-007,0.000662919
,,,-1.65592e-007,0.000441946
,,,-1.65192e-007,-0.000220973
,,,-1.64792e-007,0.000441946
,,,-1.64392e-007,0.000220973
,,,-1.63992e-007,0.000220973
,,,-1.63592e-007,0
,,,-1.63192e-007,0.00110486
,,,-1.62792e-007,0.000441946
,,,-1.62392e-007,0.000220973
,,,-1.61992e-007,0.000220973
,,,-1.61592e-007,0.000662919
,,,-1.61192e-007,0.000441946
,,,-1.60792e-007,-0.000441946
,,,-1.60392e-007,0.000220973
,,,-1.59992e-007,0.000441946
,,,-1.59592e-007,0.000662919
,,,-1.59192e-007,-0.000441946
,,,-1.58792e-007,-0.000662919
,,,-1.58392e-007,0
,,,-1.57992e-007,-0.000883892
,,,-1.57592e-007,-0.000883892
,,,-1.57192e-007,-0.000220973
,,,-1.56792e-007,0
,,,-1.56392e-007,-0.000220973
,,,-1.55992e-007,0
,,,-1.55592e-007,-0.000441946
,,,-1.55192e-007,0
,,,-1.54792e-007,0.000441946
,,,-1.54392e-007,0
,,,-1.53992e-007,-0.000220973
,,,-1.53592e-007,0.000883892
,,,-1.53192e-007,0
,,,-1.52792e-007,0
,,,-1.52392e-007,-0.000220973
,,,-1.51992e-007,0.000441946
,,,-1.51592e-007,0
,,,-1.51192e-007,0.000441946
,,,-1.50792e-007,0.000441946
,,,-1.50392e-007,0.000441946
,,,-1.49992e-007,-0.000662919
,,,-1.49592e-007,0.000220973
,,,-1.49192e-007,-0.000220973
,,,-1.48792e-007,0
,,,-1.48392e-007,-0.000220973
,,,-1.47992e-007,0.000441946
,,,-1.47592e-007,-0.000220973
,,,-1.47192e-007,0.000441946
,,,-1.46792e-007,0.000220973
,,,-1.46392e-007,0.000441946
,,,-1.45992e-007,0.000441946
,,,-1.45592e-007,0.000662919
,,,-1.45192e-007,0
,,,-1.44792e-007,-0.000662919
,,,-1.44392e-007,0.000220973
,,,-1.43992e-007,0.000662919
,,,-1.43592e-007,-0.000441946
,,,-1.43192e-007,0.000220973
,,,-1.42792e-007,0.000441946
,,,-1.42392e-007,0.000441946
,,,-1.41992e-007,0.000220973
,,,-1.41592e-007,-0.000662919
,,,-1.41192e-007,0.000441946
,,,-1.40792e-007,0
,,,-1.40392e-007,-0.000220973
,,,-1.39992e-007,0.000220973
,,,-1.39592e-007,0.000220973
,,,-1.39192e-007,0
,,,-1.38792e-007,0.000220973
,,,-1.38392e-007,0.000220973
,,,-1.37992e-007,0.000220973
,,,-1.37592e-007,0
,,,-1.37192e-007,0.000220973
,,,-1.36792e-007,-0.000441946
,,,-1.36392e-007,0.000220973
,,,-1.35992e-007,0.000220973
,,,-1.35592e-007,0.00110486
,,,-1.35192e-007,0.000220973
,,,-1.34792e-007,0
,,,-1.34392e-007,-0.000220973
,,,-1.33992e-007,0.000220973
,,,-1.33592e-007,0.000220973
,,,-1.33192e-007,0.000441946
,,,-1.32792e-007,-0.000441946
,,,-1.32392e-007,0.000441946
,,,-1.31992e-007,0.000441946
,,,-1.31592e-007,0.000220973
,,,-1.31192e-007,0
,,,-1.30792e-007,0.000441946
,,,-1.30392e-007,0.000220973
,,,-1.29992e-007,0
,,,-1.29592e-007,0.00110486
,,,-1.29192e-007,0.000662919
,,,-1.28792e-007,0
,,,-1.28392e-007,0.000662919
,,,-1.27992e-007,0.000220973
,,,-1.27592e-007,0.000441946
,,,-1.27192e-007,-0.000220973
,,,-1.26792e-007,0
,,,-1.26392e-007,0.000220973
,,,-1.25992e-007,0.000883892
,,,-1.25592e-007,0
,,,-1.25192e-007,0
,,,-1.24792e-007,0
,,,-1.24392e-007,0.000220973
,,,-1.23992e-007,0.000220973
,,,-1.23592e-007,-0.000662919
,,,-1.23192e-007,-0.000662919
,,,-1.22792e-007,-0.000220973
,,,-1.22392e-007,0
,,,-1.21992e-007,0
,,,-1.21592e-007,0.000441946
,,,-1.21192e-007,0.000441946
,,,-1.20792e-007,0.000441946
,,,-1.20392e-007,0.000220973
,,,-1.19992e-007,0.000662919
,,,-1.19592e-007,-0.000220973
,,,-1.19192e-007,-0.000441946
,,,-1.18792e-007,-0.000220973
,,,-1.18392e-007,0.000220973
,,,-1.17992e-007,0.000662919
,,,-1.17592e-007,-0.000441946
,,,-1.17192e-007,-0.000441946
,,,-1.16792e-007,0.000441946
,,,-1.16392e-007,0
,,,-1.15992e-007,0.000441946
,,,-1.15592e-007,0.000220973
,,,-1.15192e-007,0
,,,-1.14792e-007,0
,,,-1.14392e-007,0.000220973
,,,-1.13992e-007,0.000883892
,,,-1.13592e-007,0.000441946
,,,-1.13192e-007,-0.000220973
,,,-1.12792e-007,0.000662919
,,,-1.12392e-007,-0.000220973
,,,-1.11992e-007,0.000441946
,,,-1.11592e-007,0
,,,-1.11192e-007,0.000220973
,,,-1.10792e-007,-0.000441946
,,,-1.10392e-007,0.000883892
,,,-1.09992e-007,0
,,,-1.09592e-007,0.000441946
,,,-1.09192e-007,-0.000441946
,,,-1.08792e-007,-0.000441946
,,,-1.08392e-007,-0.000441946
,,,-1.07992e-007,0.000883892
,,,-1.07592e-007,0
,,,-1.07192e-007,0
,,,-1.06792e-007,0.000441946
,,,-1.06392e-007,-0.000220973
,,,-1.05992e-007,-0.000220973
,,,-1.05592e-007,0.000220973
,,,-1.05192e-007,0
,,,-1.04792e-007,-0.000220973
,,,-1.04392e-007,0.000220973
,,,-1.03992e-007,0.000441946
,,,-1.03592e-007,0.000662919
,,,-1.03192e-007,0.000883892
,,,-1.02792e-007,0.000662919
,,,-1.02392e-007,0.000441946
,,,-1.01992e-007,-0.000220973
,,,-1.01592e-007,-0.000662919
,,,-1.01192e-007,0.000441946
,,,-1.00792e-007,0.000220973
,,,-1.00392e-007,-0.000220973
,,,-9.99923e-008,0.000220973
,,,-9.95923e-008,-0.000220973
,,,-9.91923e-008,0.000883892
,,,-9.87923e-008,0.000441946
,,,-9.83923e-008,-0.000220973
,,,-9.79923e-008,-0.000662919
,,,-9.75923e-008,0.000662919
,,,-9.71923e-008,0.000662919
,,,-9.67923e-008,-0.000441946
,,,-9.63923e-008,0.000441946
,,,-9.59923e-008,0.000662919
,,,-9.55923e-008,0.000883892
,,,-9.51923e-008,0
,,,-9.47923e-008,-0.000441946
,,,-9.43923e-008,-0.000441946
,,,-9.39923e-008,0.000220973
,,,-9.35923e-008,-0.000662919
,,,-9.31923e-008,0.000441946
,,,-9.27923e-008,0.000220973
,,,-9.23923e-008,0.000662919
,,,-9.19923e-008,0.000220973
,,,-9.15923e-008,-0.000220973
,,,-9.11923e-008,0.000662919
,,,-9.07923e-008,0.000220973
,,,-9.03923e-008,0.000220973
,,,-8.99923e-008,-0.000220973
,,,-8.95923e-008,0.000220973
,,,-8.91923e-008,0.000441946
,,,-8.87923e-008,0.000662919
,,,-8.83923e-008,0.000441946
,,,-8.79923e-008,0.000441946
,,,-8.75923e-008,0.000883892
,,,-8.71923e-008,0.000220973
,,,-8.67923e-008,0.000441946
,,,-8.63923e-008,0.000220973
,,,-8.59923e-008,0.000220973
,,,-8.55923e-008,0
,,,-8.51923e-008,-0.000441946
,,,-8.47923e-008,0
,,,-8.43923e-008,-0.000220973
,,,-8.39923e-008,0
,,,-8.35923e-008,0.000662919
,,,-8.31923e-008,0.000441946
,,,-8.27923e-008,-0.000441946
,,,-8.23923e-008,-0.000220973
,,,-8.19923e-008,0.000220973
,,,-8.15923e-008,0
,,,-8.11923e-008,-0.000662919
,,,-8.07923e-008,0.000441946
,,,-8.03923e-008,0.000441946
,,,-7.99923e-008,0.000883892
,,,-7.95923e-008,0.000220973
,,,-7.91923e-008,0
,,,-7.87923e-008,0
,,,-7.83923e-008,0.000662919
,,,-7.79923e-008,0.000441946
,,,-7.75923e-008,0
,,,-7.71923e-008,0
,,,-7.67923e-008,0.000883892
,,,-7.63923e-008,0
,,,-7.59923e-008,0.000220973
,,,-7.55923e-008,0.000441946
,,,-7.51923e-008,0.000883892
,,,-7.47923e-008,0.000662919
,,,-7.43923e-008,0.00110486
,,,-7.39923e-008,0.000220973
,,,-7.35923e-008,0.000220973
,,,-7.31923e-008,0.000662919
,,,-7.27923e-008,0
,,,-7.23923e-008,0.000662919
,,,-7.19923e-008,0.000441946
,,,-7.15923e-008,0.000220973
,,,-7.11923e-008,0
,,,-7.07923e-008,0.000441946
,,,-7.03923e-008,0.000220973
,,,-6.99923e-008,0.000662919
,,,-6.95923e-008,-0.000220973
,,,-6.91923e-008,-0.000220973
,,,-6.87923e-008,-0.000220973
,,,-6.83923e-008,-0.000441946
,,,-6.79923e-008,0
,,,-6.75923e-008,0.000220973
,,,-6.71923e-008,-0.000220973
,,,-6.67923e-008,0.000220973
,,,-6.63923e-008,0
,,,-6.59923e-008,0
,,,-6.55923e-008,0.000220973
,,,-6.51923e-008,-0.000220973
,,,-6.47923e-008,-0.000220973
,,,-6.43923e-008,0.000220973
,,,-6.39923e-008,0.000220973
,,,-6.35923e-008,0.000662919
,,,-6.31923e-008,0.000220973
,,,-6.27923e-008,0.000441946
,,,-6.23923e-008,0.00110486
,,,-6.19923e-008,-0.000220973
,,,-6.15923e-008,-0.000441946
,,,-6.11923e-008,-0.000220973
,,,-6.07923e-008,0
,,,-6.03923e-008,0
,,,-5.99923e-008,-0.000662919
,,,-5.95923e-008,-0.000441946
,,,-5.91923e-008,0
,,,-5.87923e-008,0.000662919
,,,-5.83923e-008,-0.000220973
,,,-5.79923e-008,-0.000441946
,,,-5.75923e-008,0.000220973
,,,-5.71923e-008,0.000441946
,,,-5.67923e-008,0
,,,-5.63923e-008,0.000662919
,,,-5.59923e-008,0.000220973
,,,-5.55923e-008,0.000220973
,,,-5.51923e-008,0
,,,-5.47923e-008,-0.000441946
,,,-5.43923e-008,0.000220973
,,,-5.39923e-008,0.000662919
,,,-5.35923e-008,0.000441946
,,,-5.31923e-008,0
,,,-5.27923e-008,-0.000441946
,,,-5.23923e-008,-0.000441946
,,,-5.19923e-008,0.000441946
,,,-5.15923e-008,0
,,,-5.11923e-008,0.000883892
,,,-5.07923e-008,0.000441946
,,,-5.03923e-008,0.000883892
,,,-4.99923e-008,0
,,,-4.95923e-008,0.000441946
,,,-4.91923e-008,0.000662919
,,,-4.87923e-008,-0.000220973
,,,-4.83923e-008,-0.000220973
,,,-4.79923e-008,-0.000220973
,,,-4.75923e-008,0
,,,-4.71923e-008,-0.000441946
,,,-4.67923e-008,0.000441946
,,,-4.63923e-008,0.000441946
,,,-4.59923e-008,0
,,,-4.55923e-008,0
,,,-4.51923e-008,0.000220973
,,,-4.47923e-008,0.000220973
,,,-4.43923e-008,0.000441946
,,,-4.39923e-008,0.000441946
,,,-4.35923e-008,-0.000220973
,,,-4.31923e-008,-0.000220973
,,,-4.27923e-008,0.000662919
,,,-4.23923e-008,0.000220973
,,,-4.19923e-008,0
,,,-4.15923e-008,0.000441946
,,,-4.11923e-008,-0.000441946
,,,-4.07923e-008,0
,,,-4.03923e-008,0.000220973
,,,-3.99923e-008,0.000883892
,,,-3.95923e-008,0
,,,-3.91923e-008,0
,,,-3.87923e-008,-0.000441946
,,,-3.83923e-008,-0.000220973
,,,-3.79923e-008,0
,,,-3.75923e-008,0
,,,-3.71923e-008,0.000220973
,,,-3.67923e-008,-0.000441946
,,,-3.63923e-008,0.000220973
,,,-3.59923e-008,0.000441946
,,,-3.55923e-008,0
,,,-3.51923e-008,-0.000220973
,,,-3.47923e-008,0.000220973
,,,-3.43923e-008,-0.000220973
,,,-3.39923e-008,-0.000662919
,,,-3.35923e-008,0.000662919
,,,-3.31923e-008,0.000220973
,,,-3.27923e-008,0
,,,-3.23923e-008,-0.000220973
,,,-3.19923e-008,0.000220973
,,,-3.15923e-008,-0.000220973
,,,-3.11923e-008,0.000662919
,,,-3.07923e-008,0
,,,-3.03923e-008,-0.000220973
,,,-2.99923e-008,-0.000441946
,,,-2.95923e-008,-0.000441946
,,,-2.91923e-008,0.000220973
,,,-2.87923e-008,0.000220973
,,,-2.83923e-008,0
,,,-2.79923e-008,-0.000220973
,,,-2.75923e-008,0.000220973
,,,-2.71923e-008,0
,,,-2.67923e-008,0.000883892
,,,-2.63923e-008,0.000662919
,,,-2.59923e-008,-0.000220973
,,,-2.55923e-008,0.000441946
,,,-2.51923e-008,0.000883892
,,,-2.47923e-008,0.000441946
,,,-2.43923e-008,0.000220973
,,,-2.39923e-008,0.000662919
,,,-2.35923e-008,0.000662919
,,,-2.31923e-008,0.000220973
,,,-2.27923e-008,-0.000220973
,,,-2.23923e-008,0
,,,-2.19923e-008,-0.000441946
,,,-2.15923e-008,0
,,,-2.11923e-008,0.000220973
,,,-2.07923e-008,0.000441946
,,,-2.03923e-008,-0.000441946
,,,-1.99923e-008,0.000220973
,,,-1.95923e-008,0.000220973
,,,-1.91923e-008,0.000220973
,,,-1.87923e-008,-0.000220973
,,,-1.83923e-008,0.000220973
,,,-1.79923e-008,-0.000220973
,,,-1.75923e-008,-0.000441946
,,,-1.71923e-008,0
,,,-1.67923e-008,0.000441946
,,,-1.63923e-008,0.000220973
,,,-1.59923e-008,0.000441946
,,,-1.55923e-008,0.000220973
,,,-1.51923e-008,0.000220973
,,,-1.47923e-008,-0.000662919
,,,-1.43923e-008,-0.000441946
,,,-1.39923e-008,-0.000220973
,,,-1.35923e-008,0
,,,-1.31923e-008,0.000662919
,,,-1.27923e-008,0
,,,-1.23923e-008,-0.000220973
,,,-1.19923e-008,-0.000220973
,,,-1.15923e-008,0.000220973
,,,-1.11923e-008,0
,,,-1.07923e-008,0.000441946
,,,-1.03923e-008,-0.000220973
,,,-9.99231e-009,0.000220973
,,,-9.59231e-009,-0.000220973
,,,-9.19231e-009,-0.000220973
,,,-8.79231e-009,0.000441946
,,,-8.39231e-009,0.000441946
,,,-7.99231e-009,0
,,,-7.59231e-009,0
,,,-7.19231e-009,0.000220973
,,,-6.79231e-009,0.000220973
,,,-6.39231e-009,0.000220973
,,,-5.99231e-009,0.000220973
,,,-5.59231e-009,-0.000220973
,,,-5.19231e-009,-0.000441946
,,,-4.79231e-009,0.000220973
,,,-4.39231e-009,0
,,,-3.99231e-009,0
,,,-3.59231e-009,0
,,,-3.19231e-009,0.000220973
,,,-2.79231e-009,0
,,,-2.39231e-009,-0.000220973
,,,-1.99231e-009,-0.000220973
,,,-1.59231e-009,0
,,,-1.19231e-009,0
,,,-7.92311e-010,0.000220973
,,,-3.92311e-010,0
,,,7.68864e-012,0.000441946
,,,4.07689e-010,0.000441946
,,,8.07689e-010,0.000441946
,,,1.20769e-009,0
,,,1.60769e-009,0
,,,2.00769e-009,0.000662919
,,,2.40769e-009,0.000220973
,,,2.80769e-009,0.000441946
,,,3.20769e-009,-0.000220973
,,,3.60769e-009,0.000220973
,,,4.00769e-009,0
,,,4.40769e-009,0
,,,4.80769e-009,0.000220973
,,,5.20769e-009,0.000441946
,,,5.60769e-009,0.000662919
,,,6.00769e-009,-0.000220973
,,,6.40769e-009,0.000220973
,,,6.80769e-009,-0.000441946
,,,7.20769e-009,0
,,,7.60769e-009,0
,,,8.00769e-009,0
,,,8.40769e-009,0.000220973
,,,8.80769e-009,0.000441946
,,,9.20769e-009,0
,,,9.60769e-009,0.000220973
,,,1.00077e-008,0.000441946
,,,1.04077e-008,-0.000220973
,,,1.08077e-008,-0.000220973
,,,1.12077e-008,0.000220973
,,,1.16077e-008,0.000220973
,,,1.20077e-008,0.000441946
,,,1.24077e-008,0.000220973
,,,1.28077e-008,0.000441946
,,,1.32077e-008,0
,,,1.36077e-008,0
,,,1.40077e-008,0.000220973
,,,1.44077e-008,0.000220973
,,,1.48077e-008,0.000441946
,,,1.52077e-008,0.000220973
,,,1.56077e-008,-0.000220973
,,,1.60077e-008,0
,,,1.64077e-008,0
,,,1.68077e-008,0.000220973
,,,1.72077e-008,0
,,,1.76077e-008,-0.000220973
,,,1.80077e-008,0.000220973
,,,1.84077e-008,0
,,,1.88077e-008,0.000220973
,,,1.92077e-008,0.000883892
,,,1.96077e-008,0
,,,2.00077e-008,0.000220973
,,,2.04077e-008,-0.000220973
,,,2.08077e-008,0.000441946
,,,2.12077e-008,0.000441946
,,,2.16077e-008,0.000220973
,,,2.20077e-008,0
,,,2.24077e-008,0.000662919
,,,2.28077e-008,0.000441946
,,,2.32077e-008,-0.000220973
,,,2.36077e-008,0.000220973
,,,2.40077e-008,0.000220973
,,,2.44077e-008,0.000220973
,,,2.48077e-008,0.000220973
,,,2.52077e-008,-0.000220973
,,,2.56077e-008,-0.000220973
,,,2.60077e-008,0.000662919
,,,2.64077e-008,-0.000220973
,,,2.68077e-008,0
,,,2.72077e-008,0
,,,2.76077e-008,-0.000220973
,,,2.80077e-008,0
,,,2.84077e-008,0
,,,2.88077e-008,-0.000220973
,,,2.92077e-008,0
,,,2.96077e-008,0.000220973
,,,3.00077e-008,-0.000441946
,,,3.04077e-008,0
,,,3.08077e-008,0
,,,3.12077e-008,0.000220973
,,,3.16077e-008,0.000220973
,,,3.20077e-008,0.000220973
,,,3.24077e-008,0.000662919
,,,3.28077e-008,0
,,,3.32077e-008,0.000220973
,,,3.36077e-008,0.00110486
,,,3.40077e-008,0.000441946
,,,3.44077e-008,0
,,,3.48077e-008,0.000441946
,,,3.52077e-008,0.000220973
,,,3.56077e-008,0
,,,3.60077e-008,0.000662919
,,,3.64077e-008,0.000441946
,,,3.68077e-008,0.000662919
,,,3.72077e-008,0.000441946
,,,3.76077e-008,0.000220973
,,,3.80077e-008,0.000220973
,,,3.84077e-008,0.000883892
,,,3.88077e-008,0.000441946
,,,3.92077e-008,0.000662919
,,,3.96077e-008,0.000441946
,,,4.00077e-008,0
,,,4.04077e-008,0.000662919
,,,4.08077e-008,0.000662919
,,,4.12077e-008,0.000220973
,,,4.16077e-008,0.000220973
,,,4.20077e-008,0
,,,4.24077e-008,-0.000220973
,,,4.28077e-008,0.000441946
,,,4.32077e-008,0.000220973
,,,4.36077e-008,-0.000220973
,,,4.40077e-008,-0.000220973
,,,4.44077e-008,-0.000441946
