data/old/oscilloscope/C1Trace00148.txt

"Record Length",1252,"Points",-2.50012e-007,0.000220973
"Sample Interval",4e-010,s,-2.49612e-007,0
"Trigger Point",625,"Samples",-2.49212e-007,0.000662919
"Trigger Time",0.0306699,s,-2.48812e-007,0.000220973
,,,-2.48412e-007,0.000441946
"Horizontal Offset",-2.50012e-007,s,-2.48012e-007,0.000220973
,,,-2.47612e-007,0
,,,-2.47212e-007,0
,,,-2.46812e-007,0.000220973
,,,-2.46412e-007,0
,,,-2.46012e-007,-0.000220973
,,,-2.45612e-007,0
,,,-2.45212e-007,0
,,,-2.44812e-007,0.000220973
,,,-2.44412e-007,-0.000441946
,,,-2.44012e-007,0
,,,-2.43612e-007,-0.000220973
,,,-2.43212e-007,-0.000220973
,,,-2.42812e-007,0
,,,-2.42412e-007,0.000220973
,,,-2.42012e-007,0.000220973
,,,-2.41612e-007,0.000220973
,,,-2.41212e-007,0
,,,-2.40812e-007,0.000441946
,,,-2.40412e-007,0.000662919
,,,-2.40012e-007,0
,,,-2.39612e-007,0
,,,-2.39212e-007,0.000220973
,,,-2.38812e-007,0.000883892
,,,-2.38412e-007,0.000662919
,,,-2.38012e-007,0.000220973
,,,-2.37612e-007,-0.000441946
,,,-2.37212e-007,0
,,,-2.36812e-007,-0.000220973
,,,-2.36412e-007,0
,,,-2.36012e-007,0
,,,-2.35612e-007,0.000220973
,,,-2.35212e-007,0
,,,-2.34812e-007,0.000662919
,,,-2.34412e-007,0
,,,-2.34012e-007,0.000441946
,,,-2.33612e-007,-0.000441946
,,,-2.33212e-007,0.000220973
,,,-2.32812e-007,0
,,,-2.32412e-007,0.00110486
,,,-2.32012e-007,0
,,,-2.31612e-007,0.000220973
,,,-2.31212e-007,0.000220973
,,,-2.30812e-007,-0.000220973
,,,-2.30412e-007,0.000220973
,,,-2.30012e-007,0.000220973
,,,-2.29612e-007,-0.000441946
,,,-2.29212e-007,0.000220973
,,,-2.28812e-007,-0.000220973
,,,-2.28412e-007,-0.000441946
,,,-2.28012e-007,0.000220973
,,,-2.27612e-007,0.000883892
,,,-2.27212e-007,-0.000441946
,,,-2.26812e-007,0
,,,-2.26412e-007,-0.000441946
,,,-2.26012e-007,-0.000220973
,,,-2.25612e-007,-0.000441946
,,,-2.25212e-007,0.000441946
,,,-2.24812e-007,0.000220973
,,,-2.24412e-007,0
,,,-2.24012e-007,0.000883892
,,,-2.23612e-007,0
,,,-2.23212e-007,-0.000662919
,,,-2.22812e-007,-0.000220973
,,,-2.22412e-007,0.000662919
,,,-2.22012e-007,0.000441946
,,,-2.21612e-007,-0.000220973
,,,-2.21212e-007,-0.000441946
,,,-2.20812e-007,0
,,,-2.20412e-007,0.000220973
,,,-2.20012e-007,0
,,,-2.19612e-007,-0.000220973
,,,-2.19212e-007,0
,,,-2.18812e-007,0.000441946
,,,-2.18412e-007,0.000662919
,,,-2.18012e-007,0.000662919
,,,-2.17612e-007,0.000220973
,,,-2.17212e-007,-0.000441946
,,,-2.16812e-007,-0.000441946
,,,-2.16412e-007,0
,,,-2.16012e-007,0
,,,-2.15612e-007,0.000220973
,,,-2.15212e-007,0.000220973
,,,-2.14812e-007,0.000220973
,,,-2.14412e-007,0.000662919
,,,-2.14012e-007,0.000441946
,,,-2.13612e-007,0.000220973
,,,-2.13212e-007,-0.000662919
,,,-2.12812e-007,-0.000441946
,,,-2.12412e-007,-0.000220973
,,,-2.12012e-007,0.000441946
,,,-2.11612e-007,0.000441946
,,,-2.11212e-007,0.000220973
,,,-2.10812e-007,-0.000441946
,,,-2.10412e-007,-0.000220973
,,,-2.10012e-007,-0.000220973
,,,-2.09612e-007,0.000441946
,,,-2.09212e-007,0
,,,-2.08812e-007,0.000220973
,,,-2.08412e-007,0
,,,-2.08012e-007,0
,,,-2.07612e-007,0
,,,-2.07212e-007,0.000220973
,,,-2.06812e-007,0
,,,-2.06412e-007,-0.000441946
,,,-2.06012e-007,0
,,,-2.05612e-007,-0.000662919
,,,-2.05212e-007,-0.000662919
,,,-2.04812e-007,0
,,,-2.04412e-007,0.000220973
,,,-2.04012e-007,-0.000662919
,,,-2.03612e-007,0.000220973
,,,-2.03212e-007,-0.000220973
,,,-2.02812e-007,0.000662919
,,,-2.02412e-007,-0.000220973
,,,-2.02012e-007,0.000220973
,,,-2.01612e-007,-0.000441946
,,,-2.01212e-007,0.000662919
,,,-2.00812e-007,0
,,,-2.00412e-007,0
,,,-2.00012e-007,0
,,,-1.99612e-007,0.000441946
,,,-1.99212e-007,-0.000220973
,,,-1.98812e-007,0.000220973
,,,-1.98412e-007,-0.000441946
,,,-1.98012e-007,0
,,,-1.97612e-007,-0.000220973
,,,-1.97212e-007,0
,,,-1.96812e-007,0
,,,-1.96412e-007,-0.000662919
,,,-1.96012e-007,0.000441946
,,,-1.95612e-007,0
,,,-1.95212e-007,-0.000441946
,,,-1.94812e-007,-0.000220973
,,,-1.94412e-007,0
,,,-1.94012e-007,0.000220973
,,,-1.93612e-007,0.000220973
,,,-1.93212e-007,-0.000662919
,,,-1.92812e-007,0.000662919
,,,-1.92412e-007,0.000441946
,,,-1.92012e-007,0
,,,-1.91612e-007,0.000662919
,,,-1.91212e-007,0.000220973
,,,-1.90812e-007,0.000220973
,,,-1.90412e-007,0.000662919
,,,-1.90012e-007,0.000220973
,,,-1.89612e-007,-0.000220973
,,,-1.89212e-007,-0.000220973
,,,-1.88812e-007,0.000883892
,,,-1.88412e-007,0.000220973
,,,-1.88012e-007,0.000441946
,,,-1.87612e-007,-0.000441946
,,,-1.87212e-007,0
,,,-1.86812e-007,-0.000441946
,,,-1.86412e-007,-0.000220973
,,,-1.86012e-007,0.000441946
,,,-1.85612e-007,-0.000441946
,,,-1.85212e-007,0.000441946
,,,-1.84812e-007,-0.000220973
,,,-1.84412e-007,0.000662919
,,,-1.84012e-007,-0.000220973
,,,-1.83612e-007,0
,,,-1.83212e-007,0
,,,-1.82812e-007,0
,,,-1.82412e-007,-0.000220973
,,,-1.82012e-007,0
,,,-1.81612e-007,0
,,,-1.81212e-007,0.000662919
,,,-1.80812e-007,-0.000220973
,,,-1.80412e-007,0.000220973
,,,-1.80012e-007,0
,,,-1.79612e-007,0.000662919
,,,-1.79212e-007,-0.000220973
,,,-1.78812e-007,-0.000883892
,,,-1.78412e-007,-0.000883892
,,,-1.78012e-007,0
,,,-1.77612e-007,0
,,,-1.77212e-007,0.00110486
,,,-1.76812e-007,-0.000220973
,,,-1.76412e-007,0.000220973
,,,-1.76012e-007,-0.000220973
,,,-1.75612e-007,-0.000662919
,,,-1.75212e-007,0
,,,-1.74812e-007,-0.000441946
,,,-1.74412e-007,-0.000220973
,,,-1.74012e-007,0.000441946
,,,-1.73612e-007,0.000441946
,,,-1.73212e-007,0.000220973
,,,-1.72812e-007,0.000220973
,,,-1.72412e-007,0.000441946
,,,-1.72012e-007,0
,,,-1.71612e-007,0
,,,-1.71212e-007,0
,,,-1.70812e-007,0.000220973
,,,-1.70412e-007,0.000220973
,,,-1.70012e-007,0.000441946
,,,-1.69612e-007,0.000662919
,,,-1.69212e-007,0.000441946
,,,-1.68812e-007,-0.000662919
,,,-1.68412e-007,-0.000220973
,,,-1.68012e-007,0
,,,-1.67612e-007,0.000441946
,,,-1.67212e-007,0.000441946
,,,-1.66812e-007,0.000441946
,,,-1.66412e-007,0.000883892
,,,-1.66012e-007,0.000441946
,,,-1.65612e-007,-0.000220973
,,,-1.65212e-007,-0.000220973
,,,-1.64812e-007,0.000441946
,,,-1.64412e-007,0.000441946
,,,-1.64012e-007,-0.000441946
,,,-1.63612e-007,0
,,,-1.63212e-007,-0.000220973
,,,-1.62812e-007,0.000220973
,,,-1.62412e-007,0
,,,-1.62012e-007,0.000220973
,,,-1.61612e-007,-0.000220973
,,,-1.61212e-007,0
,,,-1.60812e-007,-0.000441946
,,,-1.60412e-007,0.000883892
,,,-1.60012e-007,0.000441946
,,,-1.59612e-007,-0.000441946
,,,-1.59212e-007,0.000662919
,,,-1.58812e-007,-0.000220973
,,,-1.58412e-007,0
,,,-1.58012e-007,-0.000883892
,,,-1.57612e-007,0
,,,-1.57212e-007,-0.000662919
,,,-1.56812e-007,0
,,,-1.56412e-007,0.000220973
,,,-1.56012e-007,-0.000220973
,,,-1.55612e-007,0.000220973
,,,-1.55212e-007,0
,,,-1.54812e-007,0.000441946
,,,-1.54412e-007,0.000220973
,,,-1.54012e-007,0
,,,-1.53612e-007,0.000441946
,,,-1.53212e-007,0.000883892
,,,-1.52812e-007,0
,,,-1.52412e-007,0.000441946
,,,-1.52012e-007,0.000220973
,,,-1.51612e-007,-0.000220973
,,,-1.51212e-007,-0.000220973
,,,-1.50812e-007,0.00110486
,,,-1.50412e-007,-0.000220973
,,,-1.50012e-007,0.000441946
,,,-1.49612e-007,0.000220973
,,,-1.49212e-007,0
,,,-1.48812e-007,0
,,,-1.48412e-007,0
,,,-1.48012e-007,-0.000220973
,,,-1.47612e-007,-0.000441946
,,,-1.47212e-007,-0.000220973
,,,-1.46812e-007,0
,,,-1.46412e-007,-0.000220973
,,,-1.46012e-007,-0.000220973
,,,-1.45612e-007,0.000220973
,,,-1.45212e-007,0
,,,-1.44812e-007,0
,,,-1.44412e-007,0
,,,-1.44012e-007,0
,,,-1.43612e-007,-0.000220973
,,,-1.43212e-007,0
,,,-1.42812e-007,0.000220973
,,,-1.42412e-007,0.000662919
,,,-1.42012e-007,0.000220973
,,,-1.41612e-007,-0.000441946
,,,-1.41212e-007,-0.000220973
,,,-1.40812e-007,0.000441946
,,,-1.40412e-007,-0.000220973
,,,-1.40012e-007,0.000662919
,,,-1.39612e-007,-0.000220973
,,,-1.39212e-007,-0.000220973
,,,-1.38812e-007,0.000883892
,,,-1.38412e-007,0
,,,-1.38012e-007,0
,,,-1.37612e-007,-0.000220973
,,,-1.37212e-007,-0.000220973
,,,-1.36812e-007,-0.000220973
,,,-1.36412e-007,0.000441946
,,,-1.36012e-007,0.000441946
,,,-1.35612e-007,0.000441946
,,,-1.35212e-007,-0.000220973
,,,-1.34812e-007,0.000220973
,,,-1.34412e-007,-0.000662919
,,,-1.34012e-007,0.000220973
,,,-1.33612e-007,-0.000220973
,,,-1.33212e-007,0.000441946
,,,-1.32812e-007,-0.000441946
,,,-1.32412e-007,-0.000441946
,,,-1.32012e-007,0
,,,-1.31612e-007,-0.000441946
,,,-1.31212e-007,-0.000441946
,,,-1.30812e-007,0.000220973
,,,-1.30412e-007,-0.000220973
,,,-1.30012e-007,0.000220973
,,,-1.29612e-007,0.000441946
,,,-1.29212e-007,0.000883892
,,,-1.28812e-007,-0.000220973
,,,-1.28412e-007,0.000662919
,,,-1.28012e-007,0.000441946
,,,-1.27612e-007,0
,,,-1.27212e-007,0.000662919
,,,-1.26812e-007,0
,,,-1.26412e-007,0.000220973
,,,-1.26012e-007,0.000220973
,,,-1.25612e-007,0.000220973
,,,-1.25212e-007,0
,,,-1.24812e-007,0
,,,-1.24412e-007,0
,,,-1.24012e-007,-0.000220973
,,,-1.23612e-007,0
,,,-1.23212e-007,0.000883892
,,,-1.22812e-007,-0.000220973
,,,-1.22412e-007,-0.000441946
,,,-1.22012e-007,-0.000220973
,,,-1.21612e-007,0
,,,-1.21212e-007,0.000220973
,,,-1.20812e-007,0.000441946
,,,-1.20412e-007,0.000220973
,,,-1.20012e-007,0
,,,-1.19612e-007,0
,,,-1.19212e-007,0.000220973
,,,-1.18812e-007,0.000662919
,,,-1.18412e-007,0
,,,-1.18012e-007,0
,,,-1.17612e-007,-0.000662919
,,,-1.17212e-007,0.000441946
,,,-1.16812e-007,0.000441946
,,,-1.16412e-007,0.000220973
,,,-1.16012e-007,0.000220973
,,,-1.15612e-007,-0.000662919
,,,-1.15212e-007,-0.000441946
,,,-1.14812e-007,-0.000220973
,,,-1.14412e-007,-0.000220973
,,,-1.14012e-007,0.000662919
,,,-1.13612e-007,0.000441946
,,,-1.13212e-007,0
,,,-1.12812e-007,0
,,,-1.12412e-007,0
,,,-1.12012e-007,0.000220973
,,,-1.11612e-007,0
,,,-1.11212e-007,0.000441946
,,,-1.10812e-007,0.000883892
,,,-1.10412e-007,0.000220973
,,,-1.10012e-007,0.000441946
,,,-1.09612e-007,0
,,,-1.09212e-007,0
,,,-1.08812e-007,0.000662919
,,,-1.08412e-007,0.000220973
,,,-1.08012e-007,-0.000220973
,,,-1.07612e-007,0.000220973
,,,-1.07212e-007,-0.000441946
,,,-1.06812e-007,-0.000220973
,,,-1.06412e-007,0
,,,-1.06012e-007,0
,,,-1.05612e-007,0
,,,-1.05212e-007,0.000220973
,,,-1.04812e-007,0.000220973
,,,-1.04412e-007,0.000220973
,,,-1.04012e-007,-0.000220973
,,,-1.03612e-007,0
,,,-1.03212e-007,0.000441946
,,,-1.02812e-007,-0.000441946
,,,-1.02412e-007,-0.000220973
,,,-1.02012e-007,0
,,,-1.01612e-007,0
,,,-1.01212e-007,-0.000220973
,,,-1.00812e-007,0
,,,-1.00412e-007,-0.000441946
,,,-1.00012e-007,0.000220973
,,,-9.96123e-008,0.000220973
,,,-9.92123e-008,0.000441946
,,,-9.88123e-008,0.000441946
,,,-9.84123e-008,0.000662919
,,,-9.80123e-008,0.000220973
,,,-9.76123e-008,0
,,,-9.72123e-008,-0.000220973
,,,-9.68123e-008,0.000220973
,,,-9.64123e-008,0
,,,-9.60123e-008,0.000220973
,,,-9.56123e-008,0.000441946
,,,-9.52123e-008,0
,,,-9.48123e-008,0.000220973
,,,-9.44123e-008,0.000441946
,,,-9.40123e-008,0.000220973
,,,-9.36123e-008,0.000441946
,,,-9.32123e-008,0.000220973
,,,-9.28123e-008,0.000441946
,,,-9.24123e-008,0.000220973
,,,-9.20123e-008,-0.000441946
,,,-9.16123e-008,-0.000441946
,,,-9.12123e-008,-0.000441946
,,,-9.08123e-008,-0.000220973
,,,-9.04123e-008,0
,,,-9.00123e-008,0.000220973
,,,-8.96123e-008,-0.000220973
,,,-8.92123e-008,0.000220973
,,,-8.88123e-008,0
,,,-8.84123e-008,0
,,,-8.80123e-008,0
,,,-8.76123e-008,-0.000662919
,,,-8.72123e-008,-0.000220973
,,,-8.68123e-008,0.000220973
,,,-8.64123e-008,0.000220973
,,,-8.60123e-008,0.000441946
,,,-8.56123e-008,0
,,,-8.52123e-008,0
,,,-8.48123e-008,-0.000220973
,,,-8.44123e-008,-0.000441946
,,,-8.40123e-008,0
,,,-8.36123e-008,-0.000220973
,,,-8.32123e-008,-0.000883892
,,,-8.28123e-008,0
,,,-8.24123e-008,-0.000220973
,,,-8.20123e-008,0
,,,-8.16123e-008,0.000220973
,,,-8.12123e-008,0.000441946
,,,-8.08123e-008,-0.000441946
,,,-8.04123e-008,0.000220973
,,,-8.00123e-008,0.000220973
,,,-7.96123e-008,0.000220973
,,,-7.92123e-008,0.000662919
,,,-7.88123e-008,0.000662919
,,,-7.84123e-008,0
,,,-7.80123e-008,0
,,,-7.76123e-008,0
,,,-7.72123e-008,0
,,,-7.68123e-008,0.000441946
,,,-7.64123e-008,-0.000441946
,,,-7.60123e-008,-0.000220973
,,,-7.56123e-008,0
,,,-7.52123e-008,0.000441946
,,,-7.48123e-008,0.000662919
,,,-7.44123e-008,0
,,,-7.40123e-008,0.000441946
,,,-7.36123e-008,0.000220973
,,,-7.32123e-008,0.000220973
,,,-7.28123e-008,-0.000883892
,,,-7.24123e-008,0.000220973
,,,-7.20123e-008,0.000441946
,,,-7.16123e-008,-0.000441946
,,,-7.12123e-008,0.000220973
,,,-7.08123e-008,-0.000220973
,,,-7.04123e-008,0.000441946
,,,-7.00123e-008,0
,,,-6.96123e-008,0.000441946
,,,-6.92123e-008,-0.000220973
,,,-6.88123e-008,0
,,,-6.84123e-008,0
,,,-6.80123e-008,-0.000220973
,,,-6.76123e-008,-0.000441946
,,,-6.72123e-008,-0.000662919
,,,-6.68123e-008,-0.000220973
,,,-6.64123e-008,-0.000220973
,,,-6.60123e-008,0.000662919
,,,-6.56123e-008,0.000883892
,,,-6.52123e-008,-0.000441946
,,,-6.48123e-008,0.000662919
,,,-6.44123e-008,0.000883892
,,,-6.40123e-008,0.000220973
,,,-6.36123e-008,0
,,,-6.32123e-008,0.000662919
,,,-6.28123e-008,0
,,,-6.24123e-008,0.000220973
,,,-6.20123e-008,0.000441946
,,,-6.16123e-008,0.000883892
,,,-6.12123e-008,0.000441946
,,,-6.08123e-008,0
,,,-6.04123e-008,-0.000220973
,,,-6.00123e-008,-0.000220973
,,,-5.96123e-008,-0.000220973
,,,-5.92123e-008,0.000220973
,,,-5.88123e-008,0
,,,-5.84123e-008,-0.000662919
,,,-5.80123e-008,-0.000441946
,,,-5.76123e-008,0.000220973
,,,-5.72123e-008,0.000220973
,,,-5.68123e-008,-0.000662919
,,,-5.64123e-008,-0.000220973
,,,-5.60123e-008,0.000220973
,,,-5.56123e-008,0
,,,-5.52123e-008,0
,,,-5.48123e-008,0
,,,-5.44123e-008,0
,,,-5.40123e-008,0.00110486
,,,-5.36123e-008,0.000662919
,,,-5.32123e-008,0.000441946
,,,-5.28123e-008,0.000662919
,,,-5.24123e-008,-0.000220973
,,,-5.20123e-008,0
,,,-5.16123e-008,-0.000220973
,,,-5.12123e-008,-0.000220973
,,,-5.08123e-008,0.000220973
,,,-5.04123e-008,0
,,,-5.00123e-008,0.000662919
,,,-4.96123e-008,0
,,,-4.92123e-008,0.000220973
,,,-4.88123e-008,-0.000441946
,,,-4.84123e-008,0
,,,-4.80123e-008,0.000220973
,,,-4.76123e-008,-0.000220973
,,,-4.72123e-008,-0.000441946
,,,-4.68123e-008,0.000441946
,,,-4.64123e-008,0.000441946
,,,-4.60123e-008,0
,,,-4.56123e-008,0.000662919
,,,-4.52123e-008,0
,,,-4.48123e-008,-0.000220973
,,,-4.44123e-008,-0.000220973
,,,-4.40123e-008,-0.000220973
,,,-4.36123e-008,-0.000220973
,,,-4.32123e-008,-0.000220973
,,,-4.28123e-008,0
,,,-4.24123e-008,-0.000883892
,,,-4.20123e-008,0.000220973
,,,-4.16123e-008,-0.000441946
,,,-4.12123e-008,0.000220973
,,,-4.08123e-008,0.000441946
,,,-4.04123e-008,0.000662919
,,,-4.00123e-008,0.000220973
,,,-3.96123e-008,-0.000662919
,,,-3.92123e-008,0.000662919
,,,-3.88123e-008,0
,,,-3.84123e-008,0.000662919
,,,-3.80123e-008,0.000220973
,,,-3.76123e-008,0.000220973
,,,-3.72123e-008,0.000220973
,,,-3.68123e-008,0.000662919
,,,-3.64123e-008,0
,,,-3.60123e-008,-0.000662919
,,,-3.56123e-008,0.000441946
,,,-3.52123e-008,0.000220973
,,,-3.48123e-008,0.000662919
,,,-3.44123e-008,0.000441946
,,,-3.40123e-008,0.000220973
,,,-3.36123e-008,0.000441946
,,,-3.32123e-008,0.000220973
,,,-3.28123e-008,0
,,,-3.24123e-008,0.000220973
,,,-3.20123e-008,0.000441946
,,,-3.16123e-008,0
,,,-3.12123e-008,-0.000441946
,,,-3.08123e-008,-0.000220973
,,,-3.04123e-008,0.000662919
,,,-3.00123e-008,0.000441946
,,,-2.96123e-008,-0.000220973
,,,-2.92123e-008,0
,,,-2.88123e-008,0.000220973
,,,-2.84123e-008,0.000441946
,,,-2.80123e-008,-0.000441946
,,,-2.76123e-008,-0.000441946
,,,-2.72123e-008,0.000441946
,,,-2.68123e-008,0.000220973
,,,-2.64123e-008,0.000220973
,,,-2.60123e-008,0.000883892
,,,-2.56123e-008,0.000220973
,,,-2.52123e-008,0.000220973
,,,-2.48123e-008,-0.000441946
,,,-2.44123e-008,0.000220973
,,,-2.40123e-008,0
,,,-2.36123e-008,0.000220973
,,,-2.32123e-008,-0.000441946
,,,-2.28123e-008,0.000662919
,,,-2.24123e-008,-0.000220973
,,,-2.20123e-008,0
,,,-2.16123e-008,0
,,,-2.12123e-008,-0.000441946
,,,-2.08123e-008,-0.000662919
,,,-2.04123e-008,-0.000220973
,,,-2.00123e-008,0.000662919
,,,-1.96123e-008,0.000220973
,,,-1.92123e-008,-0.000883892
,,,-1.88123e-008,-0.000883892
,,,-1.84123e-008,-0.000662919
,,,-1.80123e-008,0.000883892
,,,-1.76123e-008,0.000441946
,,,-1.72123e-008,0
,,,-1.68123e-008,0
,,,-1.64123e-008,0.000883892
,,,-1.60123e-008,0
,,,-1.56123e-008,-0.000220973
,,,-1.52123e-008,0.000441946
,,,-1.48123e-008,0.000441946
,,,-1.44123e-008,-0.000662919
,,,-1.40123e-008,-0.000662919
,,,-1.36123e-008,-0.000220973
,,,-1.32123e-008,0
,,,-1.28123e-008,0.000662919
,,,-1.24123e-008,0
,,,-1.20123e-008,0.000662919
,,,-1.16123e-008,0.000441946
,,,-1.12123e-008,0.000220973
,,,-1.08123e-008,0.000441946
,,,-1.04123e-008,-0.000441946
,,,-1.00123e-008,0
,,,-9.61227e-009,0
,,,-9.21227e-009,0
,,,-8.81227e-009,-0.000441946
,,,-8.41227e-009,0.000441946
,,,-8.01227e-009,0.000220973
,,,-7.61227e-009,-0.000441946
,,,-7.21227e-009,0
,,,-6.81227e-009,0.000441946
,,,-6.41227e-009,-0.000441946
,,,-6.01227e-009,-0.000441946
,,,-5.61227e-009,0.000220973
,,,-5.21227e-009,0.000441946
,,,-4.81227e-009,-0.000220973
,,,-4.41227e-009,-0.000220973
,,,-4.01227e-009,0
,,,-3.61227e-009,-0.000220973
,,,-3.21227e-009,-0.00110486
,,,-2.81227e-009,-0.000220973
,,,-2.41227e-009,0
,,,-2.01227e-009,-0.000220973
,,,-1.61227e-009,0.000441946
,,,-1.21227e-009,0
,,,-8.12268e-010,0.000220973
,,,-4.12268e-010,0.000220973
,,,-1.2268e-011,0.000441946
,,,3.87732e-010,0
,,,7.87732e-010,-0.000220973
,,,1.18773e-009,0
,,,1.58773e-009,0.000220973
,,,1.98773e-009,0.000220973
,,,2.38773e-009,-0.000441946
,,,2.78773e-009,0
,,,3.18773e-009,0.000220973
,,,3.58773e-009,-0.000441946
,,,3.98773e-009,-0.00110486
,,,4.38773e-009,-0.000441946
,,,4.78773e-009,-0.000441946
,,,5.18773e-009,0.000441946
,,,5.58773e-009,-0.000441946
,,,5.98773e-009,0.000662919
,,,6.38773e-009,0.000441946
,,,6.78773e-009,0.000662919
,,,7.18773e-009,-0.000662919
,,,7.58773e-009,0.000883892
,,,7.98773e-009,0.000220973
,,,8.38773e-009,0.000441946
,,,8.78773e-009,0.000662919
,,,9.18773e-009,-0.000220973
,,,9.58773e-009,-0.000441946
,,,9.98773e-009,0.000662919
,,,1.03877e-008,0.000220973
,,,1.07877e-008,0.000220973
,,,1.11877e-008,0
,,,1.15877e-008,-0.000441946
,,,1.19877e-008,0.000220973
,,,1.23877e-008,0.000883892
,,,1.27877e-008,-0.000441946
,,,1.31877e-008,0.000441946
,,,1.35877e-008,0.000220973
,,,1.39877e-008,0.000220973
,,,1.43877e-008,0.000220973
,,,1.47877e-008,0.000662919
,,,1.51877e-008,0
,,,1.55877e-008,0.000441946
,,,1.59877e-008,-0.000441946
,,,1.63877e-008,0.000220973
,,,1.67877e-008,0
,,,1.71877e-008,0.000220973
,,,1.75877e-008,-0.000220973
,,,1.79877e-008,0.000662919
,,,1.83877e-008,-0.000441946
,,,1.87877e-008,-0.000441946
,,,1.91877e-008,-0.000662919
,,,1.95877e-008,0.000662919
,,,1.99877e-008,0
,,,2.03877e-008,-0.00110486
,,,2.07877e-008,-0.000883892
,,,2.11877e-008,0.000220973
,,,2.15877e-008,0
,,,2.19877e-008,0.000441946
,,,2.23877e-008,-0.000441946
,,,2.27877e-008,-0.000441946
,,,2.31877e-008,-0.000441946
,,,2.35877e-008,0.000220973
,,,2.39877e-008,0
,,,2.43877e-008,0
,,,2.47877e-008,0.000441946
,,,2.51877e-008,0.000441946
,,,2.55877e-008,0.000220973
,,,2.59877e-008,-0.000220973
,,,2.63877e-008,-0.000441946
,,,2.67877e-008,-0.000220973
,,,2.71877e-008,-0.000220973
,,,2.75877e-008,-0.000441946
,,,2.79877e-008,-0.000662919
,,,2.83877e-008,-0.000441946
,,,2.87877e-008,-0.000662919
,,,2.91877e-008,0
,,,2.95877e-008,0.000883892
,,,2.99877e-008,0
,,,3.03877e-008,0.000220973
,,,3.07877e-008,0
,,,3.11877e-008,-0.000662919
,,,3.15877e-008,0.000441946
,,,3.19877e-008,0.000220973
,,,3.23877e-008,0.000220973
,,,3.27877e-008,0.000662919
,,,3.31877e-008,-0.000220973
,,,3.35877e-008,0.000220973
,,,3.39877e-008,0.000220973
,,,3.43877e-008,0.000220973
,,,3.47877e-008,0.000441946
,,,3.51877e-008,-0.000220973
,,,3.55877e-008,0
,,,3.59877e-008,0
,,,3.63877e-008,-0.000883892
,,,3.67877e-008,0.000220973
,,,3.71877e-008,-0.000220973
,,,3.75877e-008,-0.000220973
,,,3.79877e-008,-0.000220973
,,,3.83877e-008,0
,,,3.87877e-008,0.000662919
,,,3.91877e-008,-0.000220973
,,,3.95877e-008,0
,,,3.99877e-008,0.000441946
,,,4.03877e-008,-0.000220973
,,,4.07877e-008,-0.000220973
,,,4.11877e-008,0.000662919
,,,4.15877e-008,0.000220973
,,,4.19877e-008,0
,,,4.23877e-008,0.000883892
,,,4.27877e-008,0.00110486
,,,4.31877e-008,0.000441946
,,,4.35877e-008,0.000220973
,,,4.39877e-008,0
,,,4.43877e-008,0.000220973
,,,4.47877e-008,0
,,,4.51877e-008,0.000220973
,,,4.55877e-008,-0.000441946
,,,4.59877e-008,0.000662919
,,,4.63877e-008,0.000220973
